%YAML 1.1
%TAG !u! tag:unity3d.com,2011:
--- !u!1 &1102297712960288323
GameObject:
  m_ObjectHideFlags: 0
  m_CorrespondingSourceObject: {fileID: 0}
  m_PrefabInstance: {fileID: 0}
  m_PrefabAsset: {fileID: 0}
  serializedVersion: 6
  m_Component:
  - component: {fileID: 1776620594153676784}
  - component: {fileID: 1846871320585982455}
  m_Layer: 31
  m_Name: Misc
  m_TagString: Untagged
  m_Icon: {fileID: 0}
  m_NavMeshLayer: 0
  m_StaticEditorFlags: 0
  m_IsActive: 1
--- !u!4 &1776620594153676784
Transform:
  m_ObjectHideFlags: 0
  m_CorrespondingSourceObject: {fileID: 0}
  m_PrefabInstance: {fileID: 0}
  m_PrefabAsset: {fileID: 0}
  m_GameObject: {fileID: 1102297712960288323}
  m_LocalRotation: {x: 0, y: 0, z: 0, w: 1}
  m_LocalPosition: {x: 0, y: 0, z: 0}
  m_LocalScale: {x: 1, y: 1, z: 1}
  m_Children:
  - {fileID: 8084825556725340186}
  m_Father: {fileID: 0}
  m_RootOrder: 0
  m_LocalEulerAnglesHint: {x: 0, y: 0, z: 0}
--- !u!156049354 &1846871320585982455
Grid:
  m_ObjectHideFlags: 0
  m_CorrespondingSourceObject: {fileID: 0}
  m_PrefabInstance: {fileID: 0}
  m_PrefabAsset: {fileID: 0}
  m_GameObject: {fileID: 1102297712960288323}
  m_Enabled: 1
  m_CellSize: {x: 1, y: 1, z: 0}
  m_CellGap: {x: 0, y: 0, z: 0}
  m_CellLayout: 0
  m_CellSwizzle: 0
--- !u!1 &8645670128697837052
GameObject:
  m_ObjectHideFlags: 0
  m_CorrespondingSourceObject: {fileID: 0}
  m_PrefabInstance: {fileID: 0}
  m_PrefabAsset: {fileID: 0}
  serializedVersion: 6
  m_Component:
  - component: {fileID: 8084825556725340186}
  - component: {fileID: 1798250932604559157}
  - component: {fileID: 9125274606480258798}
  m_Layer: 31
  m_Name: Layer1
  m_TagString: Untagged
  m_Icon: {fileID: 0}
  m_NavMeshLayer: 0
  m_StaticEditorFlags: 0
  m_IsActive: 1
--- !u!4 &8084825556725340186
Transform:
  m_ObjectHideFlags: 0
  m_CorrespondingSourceObject: {fileID: 0}
  m_PrefabInstance: {fileID: 0}
  m_PrefabAsset: {fileID: 0}
  m_GameObject: {fileID: 8645670128697837052}
  m_LocalRotation: {x: -0, y: -0, z: -0, w: 1}
  m_LocalPosition: {x: 0, y: 0, z: 0}
  m_LocalScale: {x: 1, y: 1, z: 1}
  m_Children: []
  m_Father: {fileID: 1776620594153676784}
  m_RootOrder: 0
  m_LocalEulerAnglesHint: {x: 0, y: 0, z: 0}
--- !u!1839735485 &1798250932604559157
Tilemap:
  m_ObjectHideFlags: 0
  m_CorrespondingSourceObject: {fileID: 0}
  m_PrefabInstance: {fileID: 0}
  m_PrefabAsset: {fileID: 0}
  m_GameObject: {fileID: 8645670128697837052}
  m_Enabled: 1
  m_Tiles:
  - first: {x: 0, y: -4, z: 0}
    second:
      m_TileIndex: 15
      m_TileSpriteIndex: 15
      m_TileMatrixIndex: 0
      m_TileColorIndex: 0
      m_ObjectToInstantiate: {fileID: 0}
      m_TileFlags: 1
      m_ColliderType: 1
  - first: {x: 1, y: -4, z: 0}
    second:
      m_TileIndex: 16
      m_TileSpriteIndex: 16
      m_TileMatrixIndex: 0
      m_TileColorIndex: 0
      m_ObjectToInstantiate: {fileID: 0}
      m_TileFlags: 1
      m_ColliderType: 1
  - first: {x: 0, y: -3, z: 0}
    second:
      m_TileIndex: 10
      m_TileSpriteIndex: 10
      m_TileMatrixIndex: 0
      m_TileColorIndex: 0
      m_ObjectToInstantiate: {fileID: 0}
      m_TileFlags: 1
      m_ColliderType: 1
  - first: {x: 1, y: -3, z: 0}
    second:
      m_TileIndex: 11
      m_TileSpriteIndex: 11
      m_TileMatrixIndex: 0
      m_TileColorIndex: 0
      m_ObjectToInstantiate: {fileID: 0}
      m_TileFlags: 1
      m_ColliderType: 1
  - first: {x: 2, y: -3, z: 0}
    second:
      m_TileIndex: 12
      m_TileSpriteIndex: 12
      m_TileMatrixIndex: 0
      m_TileColorIndex: 0
      m_ObjectToInstantiate: {fileID: 0}
      m_TileFlags: 1
      m_ColliderType: 1
  - first: {x: 3, y: -3, z: 0}
    second:
      m_TileIndex: 13
      m_TileSpriteIndex: 13
      m_TileMatrixIndex: 0
      m_TileColorIndex: 0
      m_ObjectToInstantiate: {fileID: 0}
      m_TileFlags: 1
      m_ColliderType: 1
  - first: {x: 4, y: -3, z: 0}
    second:
      m_TileIndex: 14
      m_TileSpriteIndex: 14
      m_TileMatrixIndex: 0
      m_TileColorIndex: 0
      m_ObjectToInstantiate: {fileID: 0}
      m_TileFlags: 1
      m_ColliderType: 1
  - first: {x: 0, y: -2, z: 0}
    second:
      m_TileIndex: 5
      m_TileSpriteIndex: 5
      m_TileMatrixIndex: 0
      m_TileColorIndex: 0
      m_ObjectToInstantiate: {fileID: 0}
      m_TileFlags: 1
      m_ColliderType: 1
  - first: {x: 1, y: -2, z: 0}
    second:
      m_TileIndex: 6
      m_TileSpriteIndex: 6
      m_TileMatrixIndex: 0
      m_TileColorIndex: 0
      m_ObjectToInstantiate: {fileID: 0}
      m_TileFlags: 1
      m_ColliderType: 1
  - first: {x: 2, y: -2, z: 0}
    second:
      m_TileIndex: 7
      m_TileSpriteIndex: 7
      m_TileMatrixIndex: 0
      m_TileColorIndex: 0
      m_ObjectToInstantiate: {fileID: 0}
      m_TileFlags: 1
      m_ColliderType: 1
  - first: {x: 3, y: -2, z: 0}
    second:
      m_TileIndex: 8
      m_TileSpriteIndex: 8
      m_TileMatrixIndex: 0
      m_TileColorIndex: 0
      m_ObjectToInstantiate: {fileID: 0}
      m_TileFlags: 1
      m_ColliderType: 1
  - first: {x: 4, y: -2, z: 0}
    second:
      m_TileIndex: 9
      m_TileSpriteIndex: 9
      m_TileMatrixIndex: 0
      m_TileColorIndex: 0
      m_ObjectToInstantiate: {fileID: 0}
      m_TileFlags: 1
      m_ColliderType: 1
  - first: {x: 0, y: -1, z: 0}
    second:
      m_TileIndex: 0
      m_TileSpriteIndex: 0
      m_TileMatrixIndex: 0
      m_TileColorIndex: 0
      m_ObjectToInstantiate: {fileID: 0}
      m_TileFlags: 1
      m_ColliderType: 1
  - first: {x: 1, y: -1, z: 0}
    second:
      m_TileIndex: 1
      m_TileSpriteIndex: 1
      m_TileMatrixIndex: 0
      m_TileColorIndex: 0
      m_ObjectToInstantiate: {fileID: 0}
      m_TileFlags: 1
      m_ColliderType: 1
  - first: {x: 2, y: -1, z: 0}
    second:
      m_TileIndex: 2
      m_TileSpriteIndex: 2
      m_TileMatrixIndex: 0
      m_TileColorIndex: 0
      m_ObjectToInstantiate: {fileID: 0}
      m_TileFlags: 1
      m_ColliderType: 1
  - first: {x: 3, y: -1, z: 0}
    second:
      m_TileIndex: 3
      m_TileSpriteIndex: 3
      m_TileMatrixIndex: 0
      m_TileColorIndex: 0
      m_ObjectToInstantiate: {fileID: 0}
      m_TileFlags: 1
      m_ColliderType: 1
  - first: {x: 4, y: -1, z: 0}
    second:
      m_TileIndex: 4
      m_TileSpriteIndex: 4
      m_TileMatrixIndex: 1
      m_TileColorIndex: 0
      m_ObjectToInstantiate: {fileID: 0}
      m_TileFlags: 1
      m_ColliderType: 1
  - first: {x: 1, y: 0, z: 0}
    second:
      m_TileIndex: 4
      m_TileSpriteIndex: 4
      m_TileMatrixIndex: 0
      m_TileColorIndex: 0
      m_ObjectToInstantiate: {fileID: 0}
      m_TileFlags: 1
      m_ColliderType: 1
  - first: {x: 2, y: 0, z: 0}
    second:
      m_TileIndex: 4
      m_TileSpriteIndex: 4
      m_TileMatrixIndex: 0
      m_TileColorIndex: 0
      m_ObjectToInstantiate: {fileID: 0}
      m_TileFlags: 1
      m_ColliderType: 1
  - first: {x: 1, y: 1, z: 0}
    second:
      m_TileIndex: 4
      m_TileSpriteIndex: 4
      m_TileMatrixIndex: 0
      m_TileColorIndex: 0
      m_ObjectToInstantiate: {fileID: 0}
      m_TileFlags: 1
      m_ColliderType: 1
  - first: {x: 2, y: 1, z: 0}
    second:
      m_TileIndex: 4
      m_TileSpriteIndex: 4
      m_TileMatrixIndex: 0
      m_TileColorIndex: 0
      m_ObjectToInstantiate: {fileID: 0}
      m_TileFlags: 1
      m_ColliderType: 1
  m_AnimatedTiles: {}
  m_TileAssetArray:
  - m_RefCount: 1
    m_Data: {fileID: 11400000, guid: 026b23cc2949c4f11943eeea34fdd726, type: 2}
  - m_RefCount: 1
    m_Data: {fileID: 11400000, guid: 13afccaf33744440dbf6c3f2e71aee2d, type: 2}
  - m_RefCount: 1
    m_Data: {fileID: 11400000, guid: bc81d627041ef42e0abb29de40c4cde1, type: 2}
  - m_RefCount: 1
    m_Data: {fileID: 11400000, guid: c18f76776eaf843e4aedb0b3d460b132, type: 2}
  - m_RefCount: 5
    m_Data: {fileID: 11400000, guid: c946684ba37cd44218e2704cd9c28602, type: 2}
  - m_RefCount: 1
    m_Data: {fileID: 11400000, guid: 133d9eacb62274e41829a07e8de41d82, type: 2}
  - m_RefCount: 1
    m_Data: {fileID: 11400000, guid: fa0ce30e3d66f4b1ea74a69be51ab0ae, type: 2}
  - m_RefCount: 1
    m_Data: {fileID: 11400000, guid: 5171bd4ce84fd4465bd683b99d8f1248, type: 2}
  - m_RefCount: 1
    m_Data: {fileID: 11400000, guid: 8f0e9becad9b843ceb75ae227ded66f8, type: 2}
  - m_RefCount: 1
    m_Data: {fileID: 11400000, guid: 0985f1e9ebf1b44c5a98b0a0ac14be1b, type: 2}
  - m_RefCount: 1
    m_Data: {fileID: 11400000, guid: f8ede81d3fe3b497aaee1b05689f2596, type: 2}
  - m_RefCount: 1
    m_Data: {fileID: 11400000, guid: c246f849d6a37409b8231c9baa60dede, type: 2}
  - m_RefCount: 1
    m_Data: {fileID: 11400000, guid: d7ea82d0487634f2aa31a56e13821389, type: 2}
  - m_RefCount: 1
    m_Data: {fileID: 11400000, guid: f6a0898eb255346aabd32b94b8f27b4e, type: 2}
  - m_RefCount: 1
    m_Data: {fileID: 11400000, guid: b78de6185a7c34ed0891e4fc49d63661, type: 2}
  - m_RefCount: 1
    m_Data: {fileID: 11400000, guid: efe8a7f248ede4b9d8c9217ea742fa8f, type: 2}
  - m_RefCount: 1
    m_Data: {fileID: 11400000, guid: bf9e4b4e585e6412aa8722d5d5b7e184, type: 2}
  m_TileSpriteArray:
  - m_RefCount: 1
    m_Data: {fileID: 6323592419580586483, guid: a726e381935df4837a0f128f4fac4e05,
      type: 3}
  - m_RefCount: 1
    m_Data: {fileID: 6829088714727599081, guid: a726e381935df4837a0f128f4fac4e05,
      type: 3}
  - m_RefCount: 1
    m_Data: {fileID: -6223191617546401310, guid: a726e381935df4837a0f128f4fac4e05,
      type: 3}
  - m_RefCount: 1
    m_Data: {fileID: 4005915086015427156, guid: a726e381935df4837a0f128f4fac4e05,
      type: 3}
  - m_RefCount: 5
    m_Data: {fileID: -2756565129670164738, guid: a726e381935df4837a0f128f4fac4e05,
      type: 3}
  - m_RefCount: 1
    m_Data: {fileID: 754491886398118152, guid: a726e381935df4837a0f128f4fac4e05, type: 3}
  - m_RefCount: 1
    m_Data: {fileID: -6969014953947932415, guid: a726e381935df4837a0f128f4fac4e05,
      type: 3}
  - m_RefCount: 1
    m_Data: {fileID: -1540059275231109329, guid: a726e381935df4837a0f128f4fac4e05,
      type: 3}
  - m_RefCount: 1
    m_Data: {fileID: -6648671329575933334, guid: a726e381935df4837a0f128f4fac4e05,
      type: 3}
  - m_RefCount: 1
    m_Data: {fileID: -8819455260818846912, guid: a726e381935df4837a0f128f4fac4e05,
      type: 3}
  - m_RefCount: 1
    m_Data: {fileID: -4945377370566173513, guid: a726e381935df4837a0f128f4fac4e05,
      type: 3}
  - m_RefCount: 1
    m_Data: {fileID: 8639261529261560832, guid: a726e381935df4837a0f128f4fac4e05,
      type: 3}
  - m_RefCount: 1
    m_Data: {fileID: -5471581608655157095, guid: a726e381935df4837a0f128f4fac4e05,
      type: 3}
  - m_RefCount: 1
    m_Data: {fileID: -962590877790965286, guid: a726e381935df4837a0f128f4fac4e05,
      type: 3}
  - m_RefCount: 1
    m_Data: {fileID: 7688551932761573764, guid: a726e381935df4837a0f128f4fac4e05,
      type: 3}
  - m_RefCount: 1
    m_Data: {fileID: -7243925513761813631, guid: a726e381935df4837a0f128f4fac4e05,
      type: 3}
  - m_RefCount: 1
    m_Data: {fileID: 5827438380224577372, guid: a726e381935df4837a0f128f4fac4e05,
      type: 3}
  m_TileMatrixArray:
  - m_RefCount: 20
    m_Data:
      e00: 1
      e01: 0
      e02: 0
      e03: 0
      e10: 0
      e11: 1
      e12: 0
      e13: 0
      e20: 0
      e21: 0
      e22: 1
      e23: 0
      e30: 0
      e31: 0
      e32: 0
      e33: 1
  - m_RefCount: 1
    m_Data:
      e00: -1
      e01: 0
      e02: -0.00000008742278
      e03: 0
      e10: 0
      e11: 1
      e12: 0
      e13: 0
      e20: 0.00000008742278
      e21: 0
      e22: -1
      e23: 0
      e30: 0
      e31: 0
      e32: 0
      e33: 1
  m_TileColorArray:
  - m_RefCount: 21
    m_Data: {r: 1, g: 1, b: 1, a: 1}
  m_AnimationFrameRate: 1
  m_Color: {r: 1, g: 1, b: 1, a: 1}
  m_Origin: {x: 0, y: -4, z: 0}
  m_Size: {x: 5, y: 6, z: 1}
  m_TileAnchor: {x: 0.5, y: 0.5, z: 0}
  m_TileOrientation: 0
  m_TileOrientationMatrix:
    e00: 1
    e01: 0
    e02: 0
    e03: 0
    e10: 0
    e11: 1
    e12: 0
    e13: 0
    e20: 0
    e21: 0
    e22: 1
    e23: 0
    e30: 0
    e31: 0
    e32: 0
    e33: 1
--- !u!483693784 &9125274606480258798
TilemapRenderer:
  m_ObjectHideFlags: 0
  m_CorrespondingSourceObject: {fileID: 0}
  m_PrefabInstance: {fileID: 0}
  m_PrefabAsset: {fileID: 0}
  m_GameObject: {fileID: 8645670128697837052}
  m_Enabled: 0
  m_CastShadows: 0
  m_ReceiveShadows: 0
  m_DynamicOccludee: 0
  m_MotionVectors: 1
  m_LightProbeUsage: 0
  m_ReflectionProbeUsage: 0
  m_RenderingLayerMask: 1
  m_RendererPriority: 0
  m_Materials:
  - {fileID: 2100000, guid: a97c105638bdf8b4a8650670310a4cd3, type: 2}
  m_StaticBatchInfo:
    firstSubMesh: 0
    subMeshCount: 0
  m_StaticBatchRoot: {fileID: 0}
  m_ProbeAnchor: {fileID: 0}
  m_LightProbeVolumeOverride: {fileID: 0}
  m_ScaleInLightmap: 1
  m_ReceiveGI: 1
  m_PreserveUVs: 0
  m_IgnoreNormalsForChartDetection: 0
  m_ImportantGI: 0
  m_StitchLightmapSeams: 1
  m_SelectedEditorRenderState: 0
  m_MinimumChartSize: 4
  m_AutoUVMaxDistance: 0.5
  m_AutoUVMaxAngle: 89
  m_LightmapParameters: {fileID: 0}
  m_SortingLayerID: 0
  m_SortingLayer: 0
  m_SortingOrder: 0
  m_ChunkSize: {x: 32, y: 32, z: 32}
  m_ChunkCullingBounds: {x: 0, y: 0, z: 0}
  m_MaxChunkCount: 16
  m_MaxFrameAge: 16
  m_SortOrder: 0
  m_Mode: 0
  m_DetectChunkCullingBounds: 0
  m_MaskInteraction: 0
--- !u!114 &-1303586283915355007
MonoBehaviour:
  m_ObjectHideFlags: 0
  m_CorrespondingSourceObject: {fileID: 0}
  m_PrefabInstance: {fileID: 0}
  m_PrefabAsset: {fileID: 0}
  m_GameObject: {fileID: 0}
  m_Enabled: 1
  m_EditorHideFlags: 0
  m_Script: {fileID: 12395, guid: 0000000000000000e000000000000000, type: 0}
  m_Name: Palette Settings
  m_EditorClassIdentifier: 
  cellSizing: 0
