<?xml version="1.0" encoding="UTF-8" standalone="no"?>
<!-- Created with Inkscape (http://www.inkscape.org/) -->

<svg
   xmlns:dc="http://purl.org/dc/elements/1.1/"
   xmlns:cc="http://creativecommons.org/ns#"
   xmlns:rdf="http://www.w3.org/1999/02/22-rdf-syntax-ns#"
   xmlns:svg="http://www.w3.org/2000/svg"
   xmlns="http://www.w3.org/2000/svg"
   xmlns:sodipodi="http://sodipodi.sourceforge.net/DTD/sodipodi-0.dtd"
   xmlns:inkscape="http://www.inkscape.org/namespaces/inkscape"
   width="210mm"
   height="297mm"
   viewBox="0 0 210 297"
   version="1.1"
   id="svg4611"
   inkscape:version="0.92.2 5c3e80d, 2017-08-06"
   sodipodi:docname="safe.svg">
  <defs
     id="defs4605" />
  <sodipodi:namedview
     id="base"
     pagecolor="#ffffff"
     bordercolor="#666666"
     borderopacity="1.0"
     inkscape:pageopacity="0.0"
     inkscape:pageshadow="2"
     inkscape:zoom="2.88"
     inkscape:cx="400"
     inkscape:cy="560"
     inkscape:document-units="mm"
     inkscape:current-layer="layer1"
     showgrid="false"
     inkscape:window-width="1440"
     inkscape:window-height="855"
     inkscape:window-x="-1"
     inkscape:window-y="0"
     inkscape:window-maximized="0" />
  <metadata
     id="metadata4608">
    <rdf:RDF>
      <cc:Work
         rdf:about="">
        <dc:format>image/svg+xml</dc:format>
        <dc:type
           rdf:resource="http://purl.org/dc/dcmitype/StillImage" />
        <dc:title></dc:title>
      </cc:Work>
    </rdf:RDF>
  </metadata>
  <g
     inkscape:label="Layer 1"
     inkscape:groupmode="layer"
     id="layer1">
    <rect
       style="fill:#000000;fill-opacity:1;stroke-width:0;stroke-miterlimit:4;stroke-dasharray:none"
       id="rect4613"
       width="32.521698"
       height="30.133104"
       x="79.650604"
       y="136.59636" />
    <rect
       style="fill:#333333;fill-opacity:1;stroke-width:0;stroke-miterlimit:4;stroke-dasharray:none"
       id="rect4615"
       width="29.12254"
       height="26.917679"
       x="81.396118"
       y="138.34186" />
    <ellipse
       style="fill:#000000;fill-opacity:1;stroke-width:0;stroke-miterlimit:4;stroke-dasharray:none"
       id="path4617"
       cx="96.141136"
       cy="152.67346"
       rx="8.9572487"
       ry="8.5438366" />
    <path
       style="fill:#000000;stroke:#000000;stroke-width:0.28598642px;stroke-linecap:butt;stroke-linejoin:miter;stroke-opacity:1"
       d="m 105.02378,140.56359 -19.386547,21.45115 1.272852,1.20851 19.092805,-21.35043 z"
       id="path4619"
       inkscape:connector-curvature="0" />
    <path
       style="fill:#000000;stroke:#000000;stroke-width:0.29672605px;stroke-linecap:butt;stroke-linejoin:miter;stroke-opacity:1"
       d="m 86.439739,140.38545 -1.529486,1.56155 21.616747,20.71693 1.12163,-1.35337 z"
       id="path4621"
       inkscape:connector-curvature="0" />
    <rect
       style="fill:#000000;fill-opacity:1;stroke-width:0;stroke-miterlimit:4;stroke-dasharray:none"
       id="rect4623"
       width="25.080294"
       height="1.7455151"
       x="83.049767"
       y="151.11169" />
    <rect
       style="fill:#000000;fill-opacity:1;stroke-width:0;stroke-miterlimit:4;stroke-dasharray:none"
       id="rect4625"
       width="1.9292535"
       height="24.161602"
       x="94.809021"
       y="139.71991" />
    <ellipse
       style="fill:#333333;fill-opacity:1;stroke-width:0;stroke-miterlimit:4;stroke-dasharray:none"
       id="path4627"
       cx="96.232994"
       cy="152.62753"
       rx="7.119864"
       ry="6.8442564" />
    <ellipse
       style="fill:#666666;fill-opacity:1;stroke-width:0;stroke-miterlimit:4;stroke-dasharray:none"
       id="path4629"
       cx="96.141129"
       cy="147.80441"
       rx="0.96462667"
       ry="1.0105612" />
    <ellipse
       ry="1.0105612"
       rx="0.96462667"
       cy="148.81499"
       cx="99.72403"
       id="ellipse4631"
       style="fill:#666666;fill-opacity:1;stroke-width:0;stroke-miterlimit:4;stroke-dasharray:none"
       inkscape:transform-center-x="2.2967303"
       inkscape:transform-center-y="-1.6536459" />
    <ellipse
       inkscape:transform-center-y="-1.6536459"
       inkscape:transform-center-x="2.2967303"
       style="fill:#666666;fill-opacity:1;stroke-width:0;stroke-miterlimit:4;stroke-dasharray:none"
       id="ellipse4633"
       cx="101.74516"
       cy="152.21414"
       rx="0.96462667"
       ry="1.0105612" />
    <ellipse
       ry="1.0105612"
       rx="0.96462667"
       cy="155.42957"
       cx="99.815903"
       id="ellipse4635"
       style="fill:#666666;fill-opacity:1;stroke-width:0;stroke-miterlimit:4;stroke-dasharray:none"
       inkscape:transform-center-x="2.2967303"
       inkscape:transform-center-y="-1.6536459" />
    <ellipse
       inkscape:transform-center-y="-1.6536459"
       inkscape:transform-center-x="2.2967303"
       style="fill:#666666;fill-opacity:1;stroke-width:0;stroke-miterlimit:4;stroke-dasharray:none"
       id="ellipse4637"
       cx="96.141129"
       cy="156.62387"
       rx="0.96462667"
       ry="1.0105612" />
    <ellipse
       ry="1.0105612"
       rx="0.96462667"
       cy="154.87836"
       cx="92.19075"
       id="ellipse4639"
       style="fill:#666666;fill-opacity:1;stroke-width:0;stroke-miterlimit:4;stroke-dasharray:none"
       inkscape:transform-center-x="2.2967303"
       inkscape:transform-center-y="-1.6536459" />
    <ellipse
       inkscape:transform-center-y="-1.6536459"
       inkscape:transform-center-x="2.2967303"
       style="fill:#666666;fill-opacity:1;stroke-width:0;stroke-miterlimit:4;stroke-dasharray:none"
       id="ellipse4641"
       cx="91.088318"
       cy="151.75481"
       rx="0.96462667"
       ry="1.0105612" />
    <ellipse
       ry="1.0105612"
       rx="0.96462667"
       cy="148.44751"
       cx="92.650093"
       id="ellipse4643"
       style="fill:#666666;fill-opacity:1;stroke-width:0;stroke-miterlimit:4;stroke-dasharray:none"
       inkscape:transform-center-x="2.2967303"
       inkscape:transform-center-y="-1.6536459" />
    <rect
       style="fill:#1a1a1a;fill-opacity:1;stroke-width:0;stroke-miterlimit:4;stroke-dasharray:none"
       id="rect4645"
       width="5.5121527"
       height="3.4910302"
       x="84.152191"
       y="166.63757" />
    <rect
       y="166.63757"
       x="101.60735"
       height="3.4910302"
       width="5.5121527"
       id="rect4647"
       style="fill:#1a1a1a;fill-opacity:1;stroke-width:0;stroke-miterlimit:4;stroke-dasharray:none" />
  </g>
</svg>
