<?xml version="1.0" encoding="UTF-8" standalone="no"?>
<!-- Created with Inkscape (http://www.inkscape.org/) -->

<svg
   xmlns:dc="http://purl.org/dc/elements/1.1/"
   xmlns:cc="http://creativecommons.org/ns#"
   xmlns:rdf="http://www.w3.org/1999/02/22-rdf-syntax-ns#"
   xmlns:svg="http://www.w3.org/2000/svg"
   xmlns="http://www.w3.org/2000/svg"
   xmlns:sodipodi="http://sodipodi.sourceforge.net/DTD/sodipodi-0.dtd"
   xmlns:inkscape="http://www.inkscape.org/namespaces/inkscape"
   width="210mm"
   height="297mm"
   viewBox="0 0 210 297"
   version="1.1"
   id="svg4526"
   inkscape:version="0.92.4 (5da689c313, 2019-01-14)"
   sodipodi:docname="bottomoflegE1-1.svg">
  <defs
     id="defs4520" />
  <sodipodi:namedview
     id="base"
     pagecolor="#ffffff"
     bordercolor="#666666"
     borderopacity="1.0"
     inkscape:pageopacity="0.0"
     inkscape:pageshadow="2"
     inkscape:zoom="1.24"
     inkscape:cx="224.25033"
     inkscape:cy="325.70458"
     inkscape:document-units="mm"
     inkscape:current-layer="layer1"
     showgrid="false"
     inkscape:snap-nodes="false"
     inkscape:snap-others="false"
     inkscape:snap-global="false"
     inkscape:window-width="1686"
     inkscape:window-height="1008"
     inkscape:window-x="-32000"
     inkscape:window-y="-32000"
     inkscape:window-maximized="0" />
  <metadata
     id="metadata4523">
    <rdf:RDF>
      <cc:Work
         rdf:about="">
        <dc:format>image/svg+xml</dc:format>
        <dc:type
           rdf:resource="http://purl.org/dc/dcmitype/StillImage" />
        <dc:title />
      </cc:Work>
    </rdf:RDF>
  </metadata>
  <g
     inkscape:label="Layer 1"
     inkscape:groupmode="layer"
     id="layer1">
    <path
       style="fill:#ffccaa;stroke:#000000;stroke-width:0;stroke-linecap:butt;stroke-linejoin:miter;stroke-miterlimit:4;stroke-dasharray:none;stroke-opacity:1"
       d="m 75.804755,175.40425 6.059046,-6.83679 7.081233,-1.60736 4.77761,4.50355 2.548061,12.25143 0.644422,47.31685 6.162743,5.25167 9.27375,4.20727 9.27375,0.56294 1.85179,3.42951 -2.91842,5.28129 -3.9406,2.8962 -9.09598,-0.13333 H 92.885637 l -3.940603,-2.25177 -5.629431,2.25177 -9.221902,-0.56294 -0.725898,-6.19238 0.696272,-4.8739 4.259111,-10.08113 z"
       id="path4528"
       inkscape:connector-curvature="0"
       sodipodi:nodetypes="ccccccccccccccccccccc" />
    <path
       style="fill:#000000;stroke:#000000;stroke-width:0;stroke-linecap:butt;stroke-linejoin:miter;stroke-opacity:1;stroke-miterlimit:4;stroke-dasharray:none"
       d="m 77.454637,212.29065 19.203628,-0.21337 -0.213373,18.77689 4.907598,4.26747 10.66868,5.12097 10.24193,1.06686 1.06687,2.34711 -2.77386,6.61459 -4.26747,2.98723 -23.684474,-0.8535 -3.840727,-2.77385 -5.97446,3.2006 -8.961694,-0.8535 -0.42675,-5.97446 1.066869,-5.76108 3.840726,-10.24194 z"
       id="path4846"
       inkscape:connector-curvature="0" />
  </g>
</svg>
