<?xml version="1.0" encoding="UTF-8" standalone="no"?>
<!-- Created with Inkscape (http://www.inkscape.org/) -->

<svg
   xmlns:dc="http://purl.org/dc/elements/1.1/"
   xmlns:cc="http://creativecommons.org/ns#"
   xmlns:rdf="http://www.w3.org/1999/02/22-rdf-syntax-ns#"
   xmlns:svg="http://www.w3.org/2000/svg"
   xmlns="http://www.w3.org/2000/svg"
   xmlns:sodipodi="http://sodipodi.sourceforge.net/DTD/sodipodi-0.dtd"
   xmlns:inkscape="http://www.inkscape.org/namespaces/inkscape"
   width="210mm"
   height="297mm"
   viewBox="0 0 210 297"
   version="1.1"
   id="svg4708"
   inkscape:version="0.92.4 (5da689c313, 2019-01-14)"
   sodipodi:docname="head.svg">
  <defs
     id="defs4702" />
  <sodipodi:namedview
     id="base"
     pagecolor="#ffffff"
     bordercolor="#666666"
     borderopacity="1.0"
     inkscape:pageopacity="0.0"
     inkscape:pageshadow="2"
     inkscape:zoom="0.35"
     inkscape:cx="400"
     inkscape:cy="560"
     inkscape:document-units="mm"
     inkscape:current-layer="layer1"
     showgrid="false"
     inkscape:window-width="1920"
     inkscape:window-height="1017"
     inkscape:window-x="-8"
     inkscape:window-y="-8"
     inkscape:window-maximized="1" />
  <metadata
     id="metadata4705">
    <rdf:RDF>
      <cc:Work
         rdf:about="">
        <dc:format>image/svg+xml</dc:format>
        <dc:type
           rdf:resource="http://purl.org/dc/dcmitype/StillImage" />
        <dc:title></dc:title>
      </cc:Work>
    </rdf:RDF>
  </metadata>
  <g
     inkscape:label="Layer 1"
     inkscape:groupmode="layer"
     id="layer1">
    <path
       style="fill:#e9c6af;stroke:#000000;stroke-width:0;stroke-linecap:butt;stroke-linejoin:miter;stroke-miterlimit:4;stroke-dasharray:none;stroke-opacity:1"
       d="m 127.49927,182.07767 -6.30067,-6.95383 -3.15038,-8.18082 2.25027,-7.77183 3.20459,-3.03376 5.97146,-1.70068 5.13392,1.4014 3.14195,3.09806 3.23887,7.20808 -2.14701,8.35084 -4.1755,7.25664 -3.58376,2.0302 z"
       id="path891"
       inkscape:connector-curvature="0"
       sodipodi:nodetypes="ccccccccccccc" />
    <path
       style="fill:#28170b;stroke:#000000;stroke-width:0;stroke-linecap:butt;stroke-linejoin:miter;stroke-miterlimit:4;stroke-dasharray:none;stroke-opacity:1"
       d="m 123.93587,159.91931 -0.19024,4.89768 -0.95125,-4.89768 0.19025,7.12389 -1.14149,-4.89767 -0.95124,4.45243 -0.38049,3.78457 1.14148,4.89767 -2.09272,-4.45243 -0.57075,4.22981 -1.52198,2.89408 0.57074,-4.67505 v -2.67146 l -1.52198,3.33932 0.76099,-5.34292 0.57075,-2.89408 0.57074,-1.78097 -2.66347,4.45243 2.28297,-6.67865 2.47323,-3.33932 -3.80496,3.56194 4.3757,-5.56553 3.42447,-2.22622 3.80496,-1.11311 -7.03918,1.55836 7.80017,-2.89409 2.85372,0.89049 4.94644,3.33932 5.89769,3.11671 -4.94645,-1.11311 1.52199,2.67146 3.80496,3.56194 -3.61471,-2.00359 3.42446,3.56194 -2.47322,-0.89048 1.71223,3.1167 2.09273,4.00719 -2.47323,-3.11671 -0.37168,3.12952 0.73958,2.82681 -3.41187,-4.17535 -0.57074,3.56194 -0.3805,-6.01078 -1.52198,-2.89408 v 4.45243 l -1.71223,-7.34651 -2.47322,-2.89408 1.71222,5.12029 -3.6147,-4.89767 -3.04397,-0.22262 -2.47323,0.66786 z"
       id="path4607"
       inkscape:connector-curvature="0"
       sodipodi:nodetypes="cccccccccccccccccccccccccccccccccccccccccccccccccccc" />
    <ellipse
       style="fill:#554400;fill-opacity:1;stroke-width:0;stroke-miterlimit:4;stroke-dasharray:none"
       id="path4609"
       cx="131.7247"
       cy="157.35196"
       rx="1.984375"
       ry="2.0788691" />
    <ellipse
       ry="2.0788691"
       rx="1.984375"
       cy="156.97398"
       cx="125.4881"
       id="ellipse4613"
       style="fill:#554400;fill-opacity:1;stroke-width:0;stroke-miterlimit:4;stroke-dasharray:none" />
    <path
       style="fill:none;stroke:#000000;stroke-width:0.66028774;stroke-linecap:butt;stroke-linejoin:miter;stroke-miterlimit:4;stroke-dasharray:none;stroke-opacity:1"
       d="m 133.71954,156.60819 c 5.79465,4.97677 5.4975,6.6357 5.4975,6.6357"
       id="path4628"
       inkscape:connector-curvature="0" />
    <path
       inkscape:connector-curvature="0"
       id="path4630"
       d="m 123.92708,156.6771 c -4.1858,2.66352 -3.97114,3.55136 -3.97114,3.55136"
       style="fill:none;stroke:#000000;stroke-width:0.41054606;stroke-linecap:butt;stroke-linejoin:miter;stroke-miterlimit:4;stroke-dasharray:none;stroke-opacity:1" />
    <path
       style="fill:none;stroke:#000000;stroke-width:0.79467553;stroke-linecap:butt;stroke-linejoin:miter;stroke-miterlimit:4;stroke-dasharray:none;stroke-opacity:1"
       d="m 126.5421,156.9714 c 5.07324,-1.37259 3.84336,0.78434 3.84336,0.78434"
       id="path4632"
       inkscape:connector-curvature="0" />
    <circle
       r="1.4174107"
       cy="157.44646"
       cx="131.53572"
       id="circle4626"
       style="fill:#c8ab37;fill-opacity:1;stroke-width:0;stroke-miterlimit:4;stroke-dasharray:none" />
    <circle
       style="fill:#c8ab37;fill-opacity:1;stroke-width:0;stroke-miterlimit:4;stroke-dasharray:none"
       id="path4624"
       cx="125.48809"
       cy="156.87949"
       r="1.4174107" />
    <path
       style="fill:#ffccaa;stroke:#000000;stroke-width:0;stroke-linecap:butt;stroke-linejoin:miter;stroke-miterlimit:4;stroke-dasharray:none;stroke-opacity:1"
       d="m 128.6064,169.44719 -0.75595,2.83482 1.88988,0.18899 z"
       id="path4636"
       inkscape:connector-curvature="0" />
  </g>
</svg>
