<?xml version="1.0" encoding="UTF-8" standalone="no"?>
<!-- Created with Inkscape (http://www.inkscape.org/) -->

<svg
   xmlns:dc="http://purl.org/dc/elements/1.1/"
   xmlns:cc="http://creativecommons.org/ns#"
   xmlns:rdf="http://www.w3.org/1999/02/22-rdf-syntax-ns#"
   xmlns:svg="http://www.w3.org/2000/svg"
   xmlns="http://www.w3.org/2000/svg"
   xmlns:sodipodi="http://sodipodi.sourceforge.net/DTD/sodipodi-0.dtd"
   xmlns:inkscape="http://www.inkscape.org/namespaces/inkscape"
   width="210mm"
   height="297mm"
   viewBox="0 0 210 297"
   version="1.1"
   id="svg4526"
   inkscape:version="0.92.4 (5da689c313, 2019-01-14)"
   sodipodi:docname="bottomoflegboss.svg">
  <defs
     id="defs4520" />
  <sodipodi:namedview
     id="base"
     pagecolor="#ffffff"
     bordercolor="#666666"
     borderopacity="1.0"
     inkscape:pageopacity="0.0"
     inkscape:pageshadow="2"
     inkscape:zoom="1.52"
     inkscape:cx="214.97846"
     inkscape:cy="312.43665"
     inkscape:document-units="mm"
     inkscape:current-layer="layer1"
     showgrid="false"
     inkscape:snap-nodes="false"
     inkscape:snap-others="false"
     inkscape:snap-global="false"
     inkscape:window-width="1920"
     inkscape:window-height="1017"
     inkscape:window-x="-8"
     inkscape:window-y="-8"
     inkscape:window-maximized="1" />
  <metadata
     id="metadata4523">
    <rdf:RDF>
      <cc:Work
         rdf:about="">
        <dc:format>image/svg+xml</dc:format>
        <dc:type
           rdf:resource="http://purl.org/dc/dcmitype/StillImage" />
        <dc:title />
      </cc:Work>
    </rdf:RDF>
  </metadata>
  <g
     inkscape:label="Layer 1"
     inkscape:groupmode="layer"
     id="layer1">
    <path
       style="fill:#241f1c;stroke:#000000;stroke-width:0;stroke-linecap:butt;stroke-linejoin:miter;stroke-miterlimit:4;stroke-dasharray:none;stroke-opacity:1"
       d="m 75.804755,175.40425 6.059046,-6.83679 7.081233,-1.60736 4.77761,4.50355 2.548061,12.25143 0.644422,47.31685 6.162743,5.25167 9.27375,4.20727 9.27375,0.56294 1.85179,3.42951 -2.91842,5.28129 -3.9406,2.8962 -9.09598,-0.13333 H 92.885637 l -3.940603,-2.25177 -5.629431,2.25177 -9.221902,-0.56294 -0.725898,-6.19238 0.696272,-4.8739 4.259111,-10.08113 z"
       id="path4528"
       inkscape:connector-curvature="0"
       sodipodi:nodetypes="ccccccccccccccccccccc" />
    <path
       style="fill:#4d4d4d;stroke:#000000;stroke-width:0.26458332px;stroke-linecap:butt;stroke-linejoin:miter;stroke-opacity:1"
       d="m 77.415122,211.2554 19.108795,-0.24498 0.593122,20.23056 6.021461,5.00285 9.30942,4.16473 8.81944,0.48997 2.20486,3.1848 -2.69483,5.38966 -4.40972,3.1848 -22.996315,-0.0387 -4.196973,-2.41117 -5.634646,2.69484 -9.309412,-1.22493 -0.489971,-5.87963 0.489971,-6.61458 3.855281,-6.69839 z"
       id="path5097"
       inkscape:connector-curvature="0"
       sodipodi:nodetypes="ccccccccccccccccc" />
    <path
       style="fill:#333333;stroke:#000000;stroke-width:0.26458332px;stroke-linecap:butt;stroke-linejoin:miter;stroke-opacity:1"
       d="m 77.286182,211.35855 v 6.09238 l 19.495614,-0.17407 -0.174067,-6.09238 z"
       id="path5099"
       inkscape:connector-curvature="0" />
  </g>
</svg>
