<?xml version="1.0" encoding="UTF-8" standalone="no"?>
<!-- Created with Inkscape (http://www.inkscape.org/) -->

<svg
   xmlns:dc="http://purl.org/dc/elements/1.1/"
   xmlns:cc="http://creativecommons.org/ns#"
   xmlns:rdf="http://www.w3.org/1999/02/22-rdf-syntax-ns#"
   xmlns:svg="http://www.w3.org/2000/svg"
   xmlns="http://www.w3.org/2000/svg"
   xmlns:sodipodi="http://sodipodi.sourceforge.net/DTD/sodipodi-0.dtd"
   xmlns:inkscape="http://www.inkscape.org/namespaces/inkscape"
   width="210mm"
   height="297mm"
   viewBox="0 0 210 297"
   version="1.1"
   id="svg844"
   inkscape:version="0.92.2 5c3e80d, 2017-08-06"
   sodipodi:docname="gun1.svg">
  <defs
     id="defs838" />
  <sodipodi:namedview
     id="base"
     pagecolor="#ffffff"
     bordercolor="#666666"
     borderopacity="1.0"
     inkscape:pageopacity="0.0"
     inkscape:pageshadow="2"
     inkscape:zoom="3.959798"
     inkscape:cx="241.82745"
     inkscape:cy="560"
     inkscape:document-units="mm"
     inkscape:current-layer="layer1"
     showgrid="false"
     inkscape:snap-nodes="false"
     inkscape:window-width="2560"
     inkscape:window-height="1395"
     inkscape:window-x="0"
     inkscape:window-y="1"
     inkscape:window-maximized="1" />
  <metadata
     id="metadata841">
    <rdf:RDF>
      <cc:Work
         rdf:about="">
        <dc:format>image/svg+xml</dc:format>
        <dc:type
           rdf:resource="http://purl.org/dc/dcmitype/StillImage" />
        <dc:title></dc:title>
      </cc:Work>
    </rdf:RDF>
  </metadata>
  <g
     inkscape:label="Layer 1"
     inkscape:groupmode="layer"
     id="layer1">
    <path
       style="fill:#b3b3b3;stroke:#000000;stroke-width:0;stroke-linecap:butt;stroke-linejoin:miter;stroke-miterlimit:4;stroke-dasharray:none;stroke-opacity:1"
       d="m 87.339533,142.24923 -3.693309,2.46003 -0.0631,3.96081 3.685871,2.01173 z"
       id="path1389"
       inkscape:connector-curvature="0"
       sodipodi:nodetypes="ccccc" />
    <path
       style="fill:#b3b3b3;stroke:#000000;stroke-width:0;stroke-linecap:butt;stroke-linejoin:miter;stroke-opacity:1;stroke-miterlimit:4;stroke-dasharray:none"
       d="m 83.801078,144.6401 -28.689075,-0.26508 -0.06657,4.77122 28.689075,-0.66267 z"
       id="path1391"
       inkscape:connector-curvature="0" />
    <path
       style="fill:#502d16;stroke:#000000;stroke-width:0;stroke-linecap:butt;stroke-linejoin:miter;stroke-opacity:1;stroke-miterlimit:4;stroke-dasharray:none"
       d="m 47.594884,146.48111 24.558449,0.0895 3.003072,0.0895 c 10.179462,0.30348 6.287537,1.16848 0.266939,4.92416 l -9.676563,-0.17905 -0.06674,-0.0895 -18.018425,0.26859 z"
       id="path1393"
       inkscape:connector-curvature="0"
       sodipodi:nodetypes="ccsccccc" />
    <path
       style="fill:#502d16;stroke:#000000;stroke-width:0;stroke-linecap:butt;stroke-linejoin:miter;stroke-opacity:1;stroke-miterlimit:4;stroke-dasharray:none"
       d="m 32.606882,147.72996 c -8.753077,10.15625 3.207234,12.76212 3.207234,12.76212 l 0.868626,-0.20045 c 4.22709,-0.97547 9.153981,-7.75081 9.153981,-7.75081 l 9.354434,-1.06908 V 144.3891 L 37.618185,144.79 c 0,0 -1.713618,-0.45043 -4.142677,2.07134 -2.008669,2.08533 -0.868626,0.86862 -0.868626,0.86862 z"
       id="path1397"
       inkscape:connector-curvature="0"
       sodipodi:nodetypes="ccsccccsc" />
    <path
       style="fill:none;stroke:#542423;stroke-width:0.36700588;stroke-linecap:butt;stroke-linejoin:miter;stroke-miterlimit:4;stroke-dasharray:none;stroke-opacity:1"
       d="m 45.978102,152.09076 c 3.645636,11.69925 11.409489,-0.7415 11.409489,-0.7415 z"
       id="path1399"
       inkscape:connector-curvature="0"
       sodipodi:nodetypes="ccc" />
    <path
       style="fill:#000000;stroke:#000000;stroke-width:0;stroke-linecap:butt;stroke-linejoin:miter;stroke-miterlimit:4;stroke-dasharray:none;stroke-opacity:1"
       d="m 51.86391,151.73043 c -1.776769,1.74594 -1.093396,3.81195 -1.093396,3.81195 z"
       id="path1401"
       inkscape:connector-curvature="0" />
    <path
       style="fill:#ffcc00;stroke:#000000;stroke-width:0;stroke-linecap:butt;stroke-linejoin:miter;stroke-miterlimit:4;stroke-dasharray:none;stroke-opacity:1"
       d="m 49.110776,144.32229 c -10.958051,3.74177 1.670435,5.07811 1.670435,5.07811 l 7.416729,-0.93544 -1e-6,-4.00904 -9.15398,-0.13364 z"
       id="path1413"
       inkscape:connector-curvature="0"
       sodipodi:nodetypes="cccccc" />
    <path
       style="fill:#333333;fill-opacity:1;stroke:#000000;stroke-width:0;stroke-miterlimit:4;stroke-dasharray:none;stroke-dashoffset:0;stroke-opacity:1"
       id="path1403"
       d="m 49.733571,145.27454 c 0.156655,-0.0156 0.317556,-0.0153 0.473623,-0.0337 0.178451,-0.0211 0.349594,-0.0724 0.518464,-0.12131 0.311833,-0.10274 0.609328,-0.23191 0.902092,-0.36651 -1.4546,0.69984 -0.492422,0.23215 -0.175681,0.0397 0.161806,-0.10053 0.284707,-0.22651 0.37555,-0.37363 0.0809,-0.14172 0.129886,-0.29048 0.157855,-0.44449 0.02669,-0.18678 0.02673,-0.37527 0.02765,-0.56306 -0.01288,-0.19875 -0.122483,-0.37451 -0.258495,-0.53497 -0.132723,-0.12849 -0.301429,-0.21892 -0.477594,-0.30184 -0.101621,-0.0528 -0.220392,-0.0764 -0.329258,-0.11584 -0.09288,-0.0434 -0.04731,-0.0258 -0.135615,-0.0547 -0.141607,-0.0719 -0.271819,-0.15566 -0.405201,-0.23715 -0.191622,-0.10991 -0.36099,-0.24177 -0.52914,-0.37406 -0.139367,-0.10752 -0.25064,-0.23238 -0.362196,-0.35862 -0.105598,-0.11889 -0.200221,-0.24392 -0.291407,-0.37048 -0.07986,-0.10831 -0.123399,-0.22832 -0.144793,-0.35254 -0.01683,-0.11894 -0.01217,-0.23904 -0.01125,-0.35853 0.02729,-0.23311 0.145706,-0.45168 0.26,-0.66406 0.150159,-0.26114 0.314762,-0.51731 0.513155,-0.75633 0.160483,-0.17682 0.332586,-0.34704 0.526015,-0.50056 0.159586,-0.13019 0.338947,-0.24269 0.517581,-0.35471 0.292949,-0.17478 0.585194,-0.35122 0.895821,-0.50475 0.493223,-0.14189 0.927735,-0.54272 1.474522,-0.61792 0.154451,-0.0158 0.310545,-0.0132 0.465895,-0.013 0.0664,-4.4e-4 0.130804,0.008 0.193577,-0.0107 0,0 -0.796692,0.4883 -0.796692,0.4883 v 0 c -0.0674,4.3e-4 -0.134771,-8.2e-4 -0.202171,-0.002 -0.150596,-6.5e-4 -0.302678,-4.3e-4 -0.450456,0.0263 -0.365741,0.0852 -1.154324,0.50167 0.231981,-0.15901 -0.314991,0.14506 -0.604808,0.32205 -0.897305,0.49502 -0.178617,0.10853 -0.355139,0.22143 -0.518461,0.34478 -0.05829,0.0451 -0.121174,0.0865 -0.176832,0.1338 -0.129966,0.1105 -0.237797,0.23916 -0.361516,0.35408 -0.206081,0.23192 -0.37092,0.48449 -0.521878,0.74281 -0.112786,0.2018 -0.223821,0.411 -0.269658,0.63053 2.65e-4,0.11613 -0.0016,0.23249 0.0082,0.34842 0.01471,0.11447 0.04924,0.22513 0.122865,0.32477 0.08941,0.12453 0.182502,0.24717 0.286922,0.36387 0.107778,0.1223 0.216199,0.24279 0.349861,0.34784 0.165619,0.13067 0.334918,0.2578 0.525431,0.36442 0.126889,0.0788 0.25472,0.15784 0.394978,0.22027 0.155694,0.0611 0.31868,0.10948 0.468913,0.17938 0.186166,0.0903 0.358757,0.19557 0.497517,0.33293 0.147966,0.17283 0.26008,0.36636 0.286343,0.57855 -7.94e-4,0.19045 0.0027,0.38142 -0.01863,0.5713 -0.025,0.16132 -0.06625,0.31658 -0.143832,0.46713 -0.0052,0.009 -0.07794,0.13719 -0.08227,0.14324 -0.07313,0.10223 -0.175649,0.18453 -0.277733,0.26713 -0.06767,0.041 -0.132128,0.0855 -0.200962,0.12519 -0.413562,0.23843 -0.899361,0.39696 -1.307502,0.63572 -0.295979,0.13018 -0.593,0.26221 -0.910873,0.35392 -0.331854,0.0865 -0.670941,0.13231 -1.019924,0.13936 0,0 0.802487,-0.47506 0.802487,-0.47506 z"
       inkscape:connector-curvature="0" />
    <path
       style="fill:#333333;fill-opacity:1;stroke:#000000;stroke-width:0;stroke-miterlimit:4;stroke-dasharray:none;stroke-dashoffset:0;stroke-opacity:1"
       id="path1405"
       d="m 53.633919,134.77467 c -0.34669,0.30954 -0.736314,0.55489 -1.108303,0.81283 0.199756,-0.13746 0.399059,-0.27587 0.59927,-0.41237 0.02657,-0.0181 -0.05092,0.0407 -0.07734,0.0591 -0.227844,0.15889 -0.458835,0.31143 -0.684234,0.47524 0.616905,-0.42585 0.803892,-0.56058 0.567559,-0.39075 -0.05279,0.0436 -0.115288,0.0781 -0.159615,0.13375 -0.02984,0.0415 -0.06827,0.0723 -0.09338,0.11791 -0.0172,0.0572 -0.04271,0.10547 -0.05727,0.16447 -0.0179,0.0426 -0.01475,0.0896 -0.01286,0.13562 0.0025,0.0475 0.0036,0.0951 0.0044,0.14269 8.34e-4,0.045 2.01e-4,0.0901 6.02e-4,0.13522 -0.0039,0.0594 -0.0018,0.10006 0.03017,0.14673 0.0647,0.0758 0.117967,0.16358 0.176416,0.24608 0.08685,0.11544 0.166272,0.23784 0.2459,0.36027 0.115727,0.20212 0.230418,0.40491 0.350553,0.60342 0.09284,0.16142 0.212096,0.29917 0.304112,0.4608 0.05918,0.071 0.117441,0.13033 0.196617,0.16422 0.05581,0.0115 0.106389,0.0195 0.159483,0.0431 0.04115,0.0163 0.08191,0.0304 0.125511,0.0313 0.03954,-2.4e-4 0.07908,-7.3e-4 0.118621,-7.3e-4 0.06751,-4.7e-4 0.13502,4.9e-4 0.202529,7.3e-4 0.10081,-0.0156 0.189666,-0.0703 0.281121,-0.11831 0.01391,-0.007 0.05492,-0.0312 0.04175,-0.0221 -0.204057,0.14131 -0.816023,0.56549 -0.614625,0.41882 0.261281,-0.19029 0.531766,-0.36153 0.79555,-0.54664 -0.959485,0.99177 -0.720962,0.47978 -0.484563,0.30098 0.05678,-0.0465 0.09274,-0.11653 0.125582,-0.18722 0.04614,-0.0853 0.08032,-0.17973 0.117971,-0.27093 0.02959,-0.0771 0.05803,-0.15424 0.07512,-0.23677 0.02158,-0.0944 0.04505,-0.18707 0.05734,-0.28405 0.01092,-0.10259 0.01078,-0.20613 0.01126,-0.30936 0.0047,-0.10149 -0.0053,-0.20132 -0.031,-0.2981 -0.02803,-0.0777 -0.04968,-0.15803 -0.06236,-0.24122 -0.02483,-0.0847 -0.05023,-0.17317 -0.09014,-0.24976 -0.04154,-0.094 -0.08758,-0.18468 -0.138659,-0.27183 -0.02964,-0.0661 -0.0664,-0.14109 -0.115163,-0.18979 -0.02753,-0.0554 -0.0827,-0.0636 -0.123421,-0.10399 -0.03868,-0.004 -0.05429,-0.0604 -0.0877,-0.0721 -0.01317,-0.005 -0.0275,-0.002 -0.041,-0.005 -0.0098,-0.0106 -0.0183,-0.0231 -0.02936,-0.0319 -0.0085,-0.006 -0.03762,-0.0118 -0.04638,-0.0173 -0.02721,-0.0171 -0.05014,-0.044 -0.07768,-0.0615 -0.04461,-0.01 -0.08235,-0.0428 -0.127986,-0.0581 -0.04881,-0.0507 -0.101178,-0.0686 -0.164223,-0.0732 -0.02515,-0.0211 -0.05987,-0.0228 -0.08635,-0.0378 -0.01069,-0.006 -0.01784,-0.0196 -0.02883,-0.0248 -0.01439,-0.007 -0.03097,-9e-4 -0.04639,-0.003 -0.05407,0.0132 -0.09578,-0.011 -0.144627,-0.0348 -0.03588,-0.002 -0.08483,-0.035 -0.118024,-0.0332 -0.03838,0.009 -0.07702,0.013 -0.116043,0.0144 -0.04708,0.038 -0.100118,0.0448 -0.150626,0.0724 -0.01915,0.014 -0.03991,-0.003 -0.05927,0.002 -0.03293,0.008 -0.0033,0.0181 -0.0287,0.0307 -0.0079,0.004 -0.03311,0.008 -0.02568,0.003 0.205361,-0.14328 0.414275,-0.27916 0.621415,-0.41874 -0.421725,0.31206 -1.382664,0.94869 -0.08434,0.0626 0.05624,-0.0384 -0.05389,0.0449 -0.06894,0.0591 -0.02653,0.0608 -0.08672,0.0851 -0.118308,0.14054 -0.03292,0.065 -0.04812,0.13975 -0.08343,0.20289 -0.02807,0.0531 -0.04771,0.11235 -0.0705,0.16919 -0.0117,0.0432 -0.01401,0.088 -0.01567,0.133 0.0014,0.0628 0.03498,0.10807 0.066,0.15489 0.05004,0.0745 0.08495,0.16057 0.127369,0.24017 0.03642,0.055 0.06587,0.11656 0.09267,0.1796 0.02007,0.0575 0.03721,0.12456 0.07302,0.17155 0.04141,0.05 0.02727,0.13265 0.05806,0.18611 0.02153,0.0696 0.05509,0.12937 0.07376,0.20055 0.0244,0.0709 0.05125,0.14124 0.06439,0.21646 0.02125,0.0754 0.03229,0.15709 0.0562,0.2312 0.02726,0.0766 0.07815,0.13101 0.111231,0.20291 0.0055,0.004 0.01216,0.005 0.01638,0.0103 0.01979,0.0254 0.01624,0.0412 0.03937,0.0564 0.0058,0.004 0.01403,0.002 0.01893,0.007 0.05612,0.0604 -9.86e-4,0.0271 0.04309,0.0494 0.03168,0.0659 0.06516,0.0793 0.116993,0.11938 0.05967,0.0171 0.09845,0.0819 0.161536,0.0836 0.01826,0.0227 0.04827,0.0264 0.06869,0.0404 0.02747,0.0189 0.0219,0.0391 0.05151,0.0252 0.0373,-0.004 0.07464,-0.005 0.111992,-0.008 0.04642,-0.002 0.09284,-1.4e-4 0.139273,-7.2e-4 0.0061,-1e-4 0.01351,0.005 0.01828,-2.4e-4 0.0076,-0.007 0.0061,-0.024 0.01411,-0.0304 0.0097,-0.007 0.04418,-0.0151 0.03416,-0.008 -1.179818,0.8261 -0.775686,0.552 -0.571416,0.3809 0.04621,-0.0337 0.08223,-0.0852 0.127187,-0.12259 0.03172,-0.0344 0.03587,-0.0838 0.03792,-0.13225 0.0058,-0.057 -0.01971,-0.1067 -0.03255,-0.15982 -0.01455,-0.0818 -0.0168,-0.16569 -0.01783,-0.24899 -0.0018,-0.094 -2.01e-4,-0.1879 -6.02e-4,-0.28186 -4.01e-4,-0.10248 4.01e-4,-0.20495 6.02e-4,-0.30743 0.0059,-0.12094 -0.0033,-0.2391 -0.01991,-0.35811 -0.02366,-0.0925 -0.0387,-0.20463 -0.09963,-0.27316 -0.036,-0.0604 -0.07794,-0.14024 -0.136823,-0.17093 -0.03411,-0.0245 -0.08062,-0.0359 -0.113457,-0.0645 -0.05857,-0.0513 -0.0031,-0.0251 -0.05458,-0.0449 -0.05011,-0.0329 -0.09412,-0.0851 -0.150077,-0.10814 -0.04085,-0.0372 -0.07112,-0.0363 -0.119308,-0.0301 -0.306163,0.0187 -0.279595,0.12158 0.524839,-0.40175 -0.0395,0.0218 -0.06202,0.0381 -0.07004,0.0915 -0.0042,0.0812 -0.02371,0.15925 -0.03571,0.23899 -0.02311,0.10823 0.0105,0.20284 0.03954,0.30381 0.05329,0.0921 0.08978,0.20098 0.158327,0.27934 0.0499,0.0784 0.09146,0.17276 0.154274,0.23726 0.04619,0.0604 0.09389,0.11869 0.149262,0.16798 0.06355,0.0351 0.114892,0.092 0.165666,0.14823 0.0439,0.0256 0.08691,0.0501 0.136669,0.0475 0.02675,0.002 0.01798,0.009 0.02757,-0.0195 -0.207534,0.13972 -0.413892,0.28197 -0.622602,0.41916 -0.0081,0.005 0.02901,-0.0296 0.05085,-0.0787 0.02266,-0.0802 -0.0014,-0.12723 -0.04061,-0.19276 -0.04409,-0.0737 -0.05386,-0.087 -0.101091,-0.15897 -0.114083,-0.15489 -0.246077,-0.28875 -0.381025,-0.41669 -0.06375,-0.0487 -0.131577,-0.11026 -0.209692,-0.11621 -0.0026,-4.8e-4 -0.02929,-0.005 -0.033,-0.002 -0.0047,0.005 -0.0014,0.0162 -0.0052,0.0224 -0.0038,0.006 -0.02167,0.0165 -0.01607,0.0127 0.62775,-0.42561 0.756869,-0.65161 0.595582,-0.38317 -0.04007,0.13003 -0.04218,0.27626 -0.02813,0.41248 0.0297,0.23365 0.156474,0.42191 0.274891,0.60268 0.127317,0.15893 0.258259,0.32453 0.411301,0.44875 0.01463,0.01 0.02769,0.0243 0.04392,0.0293 0.0093,0.003 0.01877,-0.005 0.02817,-0.007 -0.211828,0.13253 -0.417971,0.27898 -0.635481,0.39759 -0.01516,0.008 0.01104,-0.038 0.01255,-0.0579 0.0038,-0.05 -0.0085,-0.10074 -0.01676,-0.14872 -0.03007,-0.18384 -0.09188,-0.35673 -0.151754,-0.52881 -0.03925,-0.11283 -0.07891,-0.22414 -0.132233,-0.32882 -0.21492,-0.36391 -0.131258,-0.11869 0.571164,-0.52977 -0.0169,0.15095 -0.011,0.30436 -0.0094,0.4563 0.0031,0.0902 0.03564,0.17213 0.06727,0.25241 0.04276,0.034 0.08226,0.0694 0.129463,0.0943 0.0093,-0.007 0.02419,0.0112 0.0335,0.004 0.0049,-0.004 0.0014,-0.0155 0.006,-0.0202 0.006,-0.006 0.02953,-0.0146 0.02257,-0.01 -0.653673,0.44471 -0.807579,0.60366 -0.596595,0.39086 0.07735,-0.16526 0.06909,-0.36878 0.07494,-0.55269 0.0055,-0.26851 -0.06721,-0.52351 -0.163529,-0.76217 -0.05512,-0.11389 -0.10745,-0.23165 -0.185382,-0.32586 -0.01367,0.0114 -0.02898,-0.0226 -0.04183,-0.0145 -0.0086,0.005 -0.0081,0.0215 -0.01431,0.0306 -0.0064,0.009 -0.03183,0.03 -0.02295,0.0241 0.581588,-0.38958 0.812225,-0.58921 0.580309,-0.39071 -0.12308,0.11666 -0.205401,0.27719 -0.277557,0.44113 -0.06481,0.17765 -0.109562,0.36459 -0.145135,0.55336 -0.02946,0.14968 -0.01523,0.1486 0.09703,0.22059 0.147164,0.0874 0.294076,0.18315 0.450646,0.24449 0.033,-0.006 0.06171,0.038 0.09467,0.0351 0.0087,-7.2e-4 0.02804,-0.0249 0.02035,-0.0199 -0.211565,0.13797 -0.417728,0.28799 -0.632358,0.419 -0.01315,0.008 0.01746,-0.0293 0.02164,-0.0462 0.0068,-0.0279 0.0074,-0.0574 0.01102,-0.0861 0.01272,-0.27287 0.02066,-0.54794 2.01e-4,-0.82038 -0.0342,-0.2753 -0.119482,-0.5309 -0.226114,-0.77598 -0.03142,-0.068 -0.06699,-0.13643 -0.115087,-0.18986 -0.02704,-0.03 -0.06129,-0.0484 -0.09007,-0.0759 -0.04133,-0.0396 -0.08193,-0.0412 -0.131978,-0.045 -0.02529,0.006 -0.05628,-0.009 -0.08097,-1.5e-4 -0.01533,0.005 -0.02674,0.0214 -0.04126,0.0295 0.209667,-0.14167 0.419331,-0.28333 0.628996,-0.425 -0.06913,0.0413 -0.110542,0.1126 -0.152581,0.18718 -0.0475,0.0849 -0.07348,0.18354 -0.104153,0.27811 -0.01946,0.0596 -0.05152,0.11277 -0.06346,0.17566 -0.01242,0.047 -0.0112,0.0979 -0.01072,0.14674 -0.0042,0.0551 0.02728,0.0935 0.05929,0.12926 0.05675,0.0635 0.137486,0.0797 0.21172,0.0938 0.06006,0.0102 0.121029,0.008 0.181535,0.007 0.01879,-0.009 0.04996,0.0101 0.06758,-9.1e-4 0.0057,-0.004 0.01563,-0.0233 0.01001,-0.0196 -0.627132,0.41259 -0.736461,0.68034 -0.610757,0.39017 0.0037,-0.10574 -0.074,-0.19963 -0.120831,-0.28256 -0.06262,-0.0709 -0.132278,-0.14887 -0.212135,-0.1906 -0.023,-0.009 -0.06769,-0.0457 -0.09442,-0.0358 -0.01387,0.005 -0.02276,0.0216 -0.03429,0.0322 1.001948,-0.68783 0.636049,-0.64663 0.596062,-0.29975 -0.0095,0.0825 -0.0087,0.16669 -0.0097,0.24978 -4.01e-4,0.16389 -0.0096,0.32677 0.03615,0.48319 0.02624,0.0777 0.05104,0.12693 0.117664,0.15169 0.04298,0.0118 0.08622,0.009 0.129936,0.008 0.03025,-0.0125 0.08037,0.0172 0.107768,-9.1e-4 0.0088,-0.005 0.02483,-0.0362 0.016,-0.0305 -0.207737,0.13437 -0.410683,0.27908 -0.616023,0.41862 0.08345,-0.16519 0.08573,-0.37261 0.0953,-0.56062 0.0172,-0.15042 -0.0112,-0.27568 -0.07555,-0.40255 -0.04413,-0.0408 -0.100111,-0.0516 -0.154608,-0.0518 -0.03043,0.009 -0.0663,-0.007 -0.09614,0.003 -0.02706,0.009 -0.09782,0.0665 -0.07334,0.0499 0.202371,-0.13722 0.404746,-0.27444 0.607121,-0.41165 -0.133966,0.14869 -0.187969,0.37213 -0.244324,0.57392 -0.04403,0.15611 -0.0739,0.31669 -0.09098,0.47997 -0.01652,0.10307 0.0046,0.18776 0.04327,0.27869 0.05152,0.0782 0.082,0.17982 0.144421,0.24794 0.0344,0.0376 0.07579,0.0648 0.112289,0.0994 0.02938,0.018 0.172161,0.11647 0.20657,0.0975 0.0089,-0.005 0.01126,-0.0191 0.0169,-0.0287 -1.482951,0.94618 -0.641305,0.60334 -0.577788,0.33119 0.02784,-0.11931 0.02682,-0.2507 0.03249,-0.373 0.02436,-0.35466 -0.02264,-0.68119 -0.133797,-1.00942 -0.07517,-0.17744 -0.149605,-0.37968 -0.279417,-0.51067 -0.05778,-0.0529 -0.118214,-0.0729 -0.189284,-0.0712 -0.0014,8e-5 -0.04368,0.003 -0.04394,0.003 -0.01644,0.008 -0.05644,0.0525 -0.04083,0.0419 0.610233,-0.41336 0.813236,-0.60462 0.587185,-0.39509 -0.0947,0.12593 -0.111928,0.29655 -0.127506,0.45822 -0.02298,0.18991 -0.04278,0.38 -0.05345,0.5715 -0.0109,0.14261 -0.01323,0.27983 0.05508,0.40234 0.0536,0.0738 0.105132,0.18508 0.187002,0.21745 0.02958,-0.007 0.08533,0.021 0.111932,9e-4 0.0087,-0.006 0.02589,-0.0367 0.01684,-0.0309 -0.208435,0.13391 -0.412125,0.27813 -0.618187,0.41719 0.04642,-0.0893 0.06035,-0.19201 0.06904,-0.29474 0.0071,-0.0976 0.0059,-0.19565 0.0054,-0.29349 -0.0052,-0.0472 -0.01385,-0.11905 -0.06096,-0.12917 -0.0063,4.8e-4 -0.01312,0.005 -0.01899,0.002 -0.01268,-0.006 -0.02176,-0.0204 -0.03419,-0.0272 -0.03391,-0.0188 -0.03337,-9.1e-4 -0.06964,-0.0165 -0.0592,-0.0369 -0.03024,-0.0223 -0.08619,-0.0453 -0.06041,-8e-5 -0.103456,-0.0561 -0.157363,-0.0755 -0.06283,-0.0226 0.0016,0.0168 -0.06055,-0.0269 -0.05077,-0.0441 -0.126263,-0.0838 -0.187687,-0.10403 -0.03768,-0.003 -0.02112,-0.007 -0.05046,0.0114 0.209439,-0.13754 0.418072,-0.27685 0.628317,-0.41262 0.0076,-0.005 -0.01417,0.0123 -0.02007,0.0198 -0.01308,0.0169 -0.01461,0.0304 -0.02091,0.052 -0.0099,0.10314 -0.0056,0.20757 -0.0024,0.31111 0.01122,0.0796 0.03967,0.14753 0.0778,0.21226 0.01212,0.0407 0.04757,0.0493 0.06941,0.0762 0.04607,0.0568 0.0027,0.0221 0.03545,0.0462 0.0052,4.8e-4 0.01178,-0.003 0.01579,9.1e-4 0.0104,0.0105 0.01431,0.0283 0.02429,0.0394 0.01284,0.0143 0.03972,0.009 0.05205,0.0172 0.01218,0.007 0.02091,0.0213 0.03136,0.032 0.05242,0.0165 0.08306,0.0698 0.133573,0.091 0.227854,0.34955 -0.470801,0.55588 -0.766725,0.59623 -0.07451,2.5e-4 -0.123139,0.0164 -0.181359,-0.049 -0.0074,-0.002 -0.01616,7.2e-4 -0.02239,-0.005 -0.01184,-0.01 -0.0185,-0.0264 -0.02922,-0.0379 -0.03606,-0.0384 -0.04716,-0.006 -0.09365,-0.0648 -0.05367,-0.0203 -0.08973,-0.0929 -0.108253,-0.15354 -0.0083,-0.0517 -0.02958,-0.0975 -0.04371,-0.14707 -0.01256,-0.0511 -0.02636,-0.0998 -0.02496,-0.15397 0.0014,-0.0465 0.0051,-0.0928 0.0056,-0.13933 0.0012,-0.0455 0.0016,-0.091 9.86e-4,-0.13649 8.35e-4,-0.048 -5.2e-5,-0.0961 6.03e-4,-0.14407 -0.0025,-0.0619 -1.11e-4,-0.12239 0.01836,-0.18064 0.01644,-0.054 0.0342,-0.10219 0.06106,-0.1491 0.02078,-0.0651 0.04733,-0.1264 0.08881,-0.17539 0.223109,-0.25168 0.494503,-0.49586 0.79992,-0.52218 0.0311,0.013 0.0727,-0.009 0.10267,0.005 0.02124,0.0101 0.0369,0.0324 0.05637,0.0467 0.04813,0.0514 0.08453,0.10615 0.117124,0.17378 0.02615,0.0507 0.03193,0.11103 0.03757,0.169 0.0096,0.0786 -0.0118,0.15042 -0.02961,0.22484 -0.03496,0.0779 -0.06686,0.15673 -0.09566,0.23854 -0.02093,0.0671 -0.04626,0.13197 -0.06329,0.20083 -0.01042,0.0446 -0.01409,0.0919 -0.0116,0.13815 0.01535,0.0452 0.0313,0.0897 0.0494,0.13362 0.0067,0.0395 0.03369,0.0472 0.05359,0.0726 0.03429,0.0439 0.06313,0.10008 0.0955,0.14654 0.06906,0.10861 0.139873,0.21517 0.209281,0.3233 0.06687,0.11621 0.133795,0.23232 0.205805,0.34429 0.05203,0.0885 0.117124,0.16133 0.181844,0.23536 0.04375,0.0602 0.101255,0.0967 0.146624,0.15569 0.04245,0.0203 0.09018,0.0123 0.135147,0.0105 0.05001,-0.002 0.100031,-0.005 0.150056,-0.004 0.04113,-9.1e-4 0.08229,-1.9e-4 0.123427,-7.3e-4 0.05277,0.0103 0.0776,-0.0267 0.121335,-0.0555 0.04226,-0.0234 0.09027,-0.0253 0.132883,-0.0472 0.01122,-0.005 0.02009,-0.0178 0.03188,-0.0215 0.0291,-0.009 0.06008,-0.007 0.08931,-0.0158 0.0351,-0.0645 0.120503,-0.0177 0.157638,-0.0636 0.0042,-0.005 0.0071,-0.0131 0.0128,-0.0158 0.03657,-0.0177 0.01828,0.01 0.04756,-0.0138 0.0524,-0.0425 -0.02411,0.002 0.04332,-0.0334 -0.207601,0.14288 -0.4152,0.28575 -0.6228,0.42863 1.819353,-1.24631 0.03729,-0.0253 0.05281,-0.0367 0.223155,-0.16336 0.457453,-0.30427 0.680303,-0.46821 0.203118,-0.14943 -0.413776,0.28367 -0.621079,0.42464 -0.01778,0.0121 0.03479,-0.0259 0.0527,-0.0377 1.278692,-0.89253 0.527267,-0.36571 0.0536,-0.0438 -0.02505,0.0171 0.04697,-0.0401 0.07189,-0.0574 0.226802,-0.15744 0.456155,-0.30965 0.6815,-0.47006 0.203834,-0.14509 -0.411306,0.28274 -0.616958,0.42411 1.709506,-1.18286 0.14506,-0.10019 0.05699,-0.0399 -0.0086,0.006 0.0171,-0.0124 0.02431,-0.0206 0.02504,-0.0283 0.04369,-0.0671 0.0624,-0.10133 0.03265,-0.0612 0.04182,-0.13298 0.0628,-0.20008 0.01839,-0.0593 0.02783,-0.12162 0.03151,-0.18452 0.0029,-0.0692 0.0033,-0.13845 0.0024,-0.20765 0.0034,-0.0753 -0.02125,-0.14625 -0.03347,-0.21913 -0.01156,-0.0578 -0.01538,-0.1173 -0.01728,-0.17657 -0.0014,-0.0492 -0.0012,-0.0983 -6.02e-4,-0.14751 0.0079,-0.0635 -0.01112,-0.11649 -0.02546,-0.17571 -0.01949,-0.0616 -0.03306,-0.12491 -0.05711,-0.1846 -0.02356,-0.0802 -0.06641,-0.14385 -0.110355,-0.20816 -0.0018,-0.003 -0.03769,-0.0551 -0.04072,-0.0584 -0.01698,-0.019 -0.03343,-0.005 -0.02332,-0.0106 0.660646,-0.41237 0.64615,-0.68934 0.650748,-0.35567 0.03397,0.13953 0.08428,0.27123 0.118632,0.4119 0.033,0.13475 0.04732,0.27402 0.0573,0.41347 0.0042,0.0688 0.005,0.13775 0.0048,0.20671 2e-4,0.0583 -0.0012,0.11648 -9.86e-4,0.17474 6.01e-4,0.0654 -6.03e-4,0.13071 -7.5e-5,0.19605 0.0055,0.0807 -0.0083,0.1535 -0.03871,0.22524 -0.02622,0.0567 -0.04009,0.12023 -0.06398,0.178 -0.144531,0.2995 -0.500368,0.742 -0.767948,0.53282 -0.056,-0.0799 -0.02938,-0.14963 0.01734,-0.22338 0.05253,-0.0795 0.09065,-0.16994 0.132211,-0.25775 0.01917,-0.068 0.04569,-0.13245 0.07638,-0.194 0.01961,-0.0482 0.01931,-0.10196 0.02094,-0.15432 0.007,-0.0525 -0.0082,-0.0915 -0.02398,-0.1386 -0.0184,-0.0537 -0.0172,-0.11163 -0.03783,-0.16412 -0.02527,-0.0772 -0.04073,-0.15597 -0.07539,-0.22836 -0.03237,-0.0584 -0.04283,-0.12595 -0.06155,-0.19056 -0.02395,-0.0415 -0.03224,-0.0908 -0.04815,-0.13628 -0.03828,-0.0533 -0.06926,-0.10271 -0.09065,-0.16951 -0.03018,-0.0908 -0.07879,-0.17023 -0.112659,-0.25878 -0.02643,-0.0631 -0.04491,-0.13026 -0.05387,-0.19992 -0.0092,-0.042 -0.02744,-0.085 -0.04914,-0.11976 -0.02821,-0.0437 -0.05131,-0.0951 -0.09062,-0.12557 -0.05078,-0.0373 -0.100565,-0.0827 -0.156512,-0.10906 -0.04717,-0.0213 -0.08565,-0.058 -0.134479,-0.0745 -0.03473,-0.008 -0.06953,-0.005 -0.104823,-0.005 -0.04046,4.8e-4 -0.08093,9.1e-4 -0.121394,9.1e-4 -0.04557,1.9e-4 -0.09113,6e-5 -0.136697,-9e-5 -0.04314,4.8e-4 -0.08628,9e-5 -0.129428,1.9e-4 -0.14587,0.25257 -0.01457,0.0193 0.60885,-0.399 0.01013,-0.006 -0.01953,0.0151 -0.02961,0.022 -0.02486,0.0171 -0.03655,0.0331 -0.0546,0.0597 -0.03239,0.0447 -0.06212,0.0875 -0.08296,0.14129 -0.02307,0.0578 -0.0578,0.10044 -0.08569,0.15463 -0.02614,0.0637 -0.06813,0.11144 -0.100638,0.16917 -0.02653,0.0494 -0.05748,0.0959 -0.06916,0.15388 -0.0121,0.0413 -0.01028,0.0857 -0.01074,0.12885 -7e-6,0.0258 -0.0062,0.0235 0.007,0.0332 0,0 -0.647799,0.47037 -0.647799,0.47037 v 0 c -0.01856,-0.0281 -0.03833,-0.0532 -0.03473,-0.0916 -4.01e-4,-0.0499 -4.01e-4,-0.10011 0.002,-0.14998 0.01545,-0.0639 0.02151,-0.12882 0.06077,-0.18108 0.01489,-0.0282 0.02496,-0.0694 0.0478,-0.0901 0.0065,-0.006 0.01682,-0.005 0.02211,-0.0127 0.01369,-0.0192 0.0098,-0.0518 0.03049,-0.0665 0.01385,-0.0237 0.02674,-0.0746 0.04293,-0.0933 0.005,-0.005 0.01551,9e-4 0.02038,-0.005 0.0116,-0.0141 0.0042,-0.0429 0.02279,-0.0527 0.03127,-0.0473 0.03598,-0.11379 0.07905,-0.1518 0.01361,-0.0213 0.03765,-0.0761 0.04633,-0.0883 0.0076,-0.0108 0.01927,-0.0163 0.0295,-0.0233 0.687368,-0.47103 0.424343,-0.51122 0.708943,-0.46082 0.04299,1e-4 0.08599,-2.2e-4 0.128981,1.5e-4 0.04568,-1.9e-4 0.09135,-2.4e-4 0.137031,-7.2e-4 0.041,-4.8e-4 0.08202,-7.3e-4 0.123005,7.2e-4 0.04083,0.003 0.08078,0.0103 0.118765,0.0296 0.04686,0.0251 0.08947,0.0604 0.137597,0.0825 0.05701,0.0383 0.11374,0.0786 0.166427,0.12489 0.04026,0.0434 0.06981,0.0982 0.102806,0.14926 0.02672,0.0495 0.05031,0.10201 0.06679,0.15803 0.0035,0.0617 0.01718,0.12106 0.03991,0.17692 0.0341,0.0914 0.08628,0.17173 0.116961,0.26523 0.01606,0.0649 0.06042,0.10291 0.08834,0.16044 0.01884,0.0459 0.02441,0.098 0.05,0.14101 0.02133,0.0591 0.02376,0.12573 0.05556,0.18064 0.03445,0.0739 0.05787,0.15095 0.07723,0.23213 0.02463,0.0561 0.03357,0.10948 0.04263,0.17049 0.01786,0.0559 0.04475,0.10789 0.03759,0.17012 3.6e-5,0.0607 6.02e-4,0.12282 -0.0094,0.1824 -0.01439,0.0725 -0.0608,0.12622 -0.07834,0.19692 -0.01616,0.0693 -0.03273,0.0786 -0.05884,0.13801 -0.02063,0.0469 -0.03146,0.10016 -0.06492,0.13832 -0.0779,0.14166 0.03279,-0.0528 -0.0412,0.0583 -0.01519,0.0228 -0.02358,0.0539 -0.04522,0.0121 0.160557,-0.23447 0.0278,-0.0377 -0.614444,0.4216 -0.01192,0.008 0.03075,-0.006 0.03809,-0.0202 0.03895,-0.0747 -0.0226,0.007 0.02706,-0.0538 0.03251,-0.052 0.04475,-0.11066 0.06979,-0.16828 0.02096,-0.0654 0.06116,-0.11535 0.05121,-0.19065 6.03e-4,-0.0653 -6.02e-4,-0.13082 9.1e-5,-0.19622 4.01e-4,-0.0583 -9.86e-4,-0.1165 2.01e-4,-0.17475 4.01e-4,-0.0674 0.0016,-0.13469 -4.02e-4,-0.202 -0.0052,-0.13428 -0.01647,-0.2684 -0.04647,-0.39843 -0.03463,-0.1455 -0.08666,-0.2795 -0.126523,-0.4219 -0.0039,-0.0224 -0.02732,-0.0539 -0.01178,-0.0673 0.558851,-0.48035 0.517648,-0.71734 0.742088,-0.39425 0.04737,0.0692 0.09023,0.14182 0.118768,0.22524 0.02807,0.0645 0.04191,0.13407 0.06454,0.20039 0.01401,0.0661 0.04396,0.12652 0.0352,0.19713 4.02e-4,0.0483 1.04e-4,0.0966 1.8e-5,0.14497 6.02e-4,0.0551 0.0012,0.11058 0.01054,0.16474 0.011,0.0786 0.0385,0.15349 0.04065,0.23308 -6.02e-4,0.0707 6.03e-4,0.14154 -6.02e-4,0.2123 -0.0024,0.0704 -0.0064,0.13963 -0.02257,0.20786 -0.01013,0.0368 -0.02532,0.0708 -0.03326,0.10843 -0.0021,0.0101 -0.0094,0.0692 -0.01176,0.077 -0.003,0.01 -0.0092,0.0178 -0.01385,0.0266 -0.12974,0.37361 -0.414139,0.34827 -0.744906,0.63411 -0.192664,0.16649 0.411177,-0.28531 0.616765,-0.42797 -0.225698,0.15641 -0.448183,0.31965 -0.677094,0.46921 -0.206711,0.13506 0.406262,-0.28527 0.61047,-0.42567 0.02457,-0.0169 -0.04676,0.0384 -0.0712,0.0555 -0.225331,0.15793 -0.44732,0.32289 -0.676067,0.47362 -0.210274,0.13855 0.413752,-0.29139 0.620627,-0.43708 -0.02983,0.0416 -0.01079,0.0221 -0.04926,0.0486 -0.225337,0.15523 -0.440218,0.33444 -0.675782,0.46614 -0.214946,0.12015 0.817492,-0.57673 0.613679,-0.43142 -0.341536,0.24351 -1.393066,0.97637 -0.05152,0.0399 -0.249079,0.17481 -0.504292,0.40453 -0.78129,0.5266 -0.05783,-2.4e-4 -0.105738,0.0377 -0.161158,0.0524 -0.08349,0.0217 -0.165512,0.0602 -0.243516,0.1015 -0.04873,0.0263 -0.09202,0.0281 -0.144737,0.0244 -0.04075,-2.4e-4 -0.0815,7.2e-4 -0.12224,9.1e-4 -0.05007,0.002 -0.100222,0.003 -0.150315,0.002 -0.06216,-0.004 -0.121712,-0.0158 -0.16842,-0.0699 -0.04696,-0.0533 -0.102633,-0.0942 -0.144894,-0.15344 -0.06705,-0.0773 -0.130883,-0.15766 -0.184969,-0.24896 -0.07198,-0.11203 -0.139383,-0.22785 -0.206148,-0.34418 -0.06864,-0.10714 -0.139833,-0.2117 -0.207764,-0.31967 -0.0548,-0.0772 -0.115557,-0.15169 -0.161189,-0.23542 -0.02139,-0.0505 -0.03959,-0.10053 -0.05815,-0.15247 -0.01553,-0.0589 -0.0095,-0.1163 -0.0058,-0.17746 0.01485,-0.0711 0.03227,-0.1435 0.06309,-0.20673 0.0075,-0.0334 0.01146,-0.0589 0.02546,-0.0897 0.0063,-0.0138 0.01786,-0.024 0.02244,-0.0388 0.01513,-0.0488 0.0042,-0.0816 0.04656,-0.11369 0.02483,-0.0576 0.04085,-0.12444 0.04217,-0.18713 -0.0014,-0.0457 -0.0012,-0.0948 -0.02076,-0.13532 -0.02421,-0.0532 -0.05342,-0.0971 -0.09613,-0.13163 -0.03779,-0.0234 -0.08942,-0.007 -0.130641,-0.002 -0.02305,0.006 -0.0397,0.0133 -0.0607,0.0275 -0.0073,0.005 -0.02884,0.02 -0.02168,0.0149 0.624787,-0.44418 0.786761,-0.63166 0.589599,-0.4084 -0.0014,0.002 -0.03623,0.0388 -0.03897,0.0407 -0.0084,0.005 -0.02106,0.003 -0.02702,0.012 -0.01355,0.0204 -0.0091,0.0699 -0.03661,0.0842 -0.01509,0.0945 -0.02634,0.0464 -0.03755,0.0673 -0.01525,0.0284 0.01353,0.0612 -0.02599,0.0769 -0.01057,0.054 -0.03781,0.097 -0.02751,0.15645 6.01e-4,0.0478 -1.89e-4,0.0957 6.01e-4,0.14352 -8.34e-4,0.0463 -4.01e-4,0.0926 -6.01e-4,0.13887 -0.0016,0.0469 -6.03e-4,0.0941 -0.0054,0.14078 -0.0022,0.0476 -0.0048,0.0819 0.01299,0.12642 0.01126,0.0505 0.03649,0.0947 0.04339,0.14583 0.01236,0.0537 0.04592,0.0839 0.08639,0.11146 0.05062,0.0286 0.09397,0.0664 0.142058,0.10026 0.04734,0.0123 0.100197,-0.004 0.1477,-0.008 0.290258,-0.0671 0.345712,-0.30681 -0.492292,0.41253 -0.01758,0.0151 0.05829,0.0551 0.02121,0.0347 -0.04727,-0.0327 -0.08851,-0.0765 -0.138868,-0.10345 -0.04908,-0.0232 -0.08674,-0.0617 -0.129013,-0.0982 -0.03889,-0.0477 -0.08395,-0.0866 -0.115107,-0.14305 -0.04359,-0.0812 -0.07565,-0.16479 -0.09734,-0.25817 -0.0012,-0.10837 -0.0039,-0.21671 -0.0037,-0.32507 0.008,-0.38596 0.466498,-0.70034 0.768862,-0.57704 0.066,0.0327 0.131556,0.0684 0.192586,0.11273 0.07195,0.0296 0.137687,0.0769 0.212781,0.0967 0.07227,0.0352 0.149017,0.056 0.218385,0.0996 0.0563,0.0557 0.08602,0.12475 0.09857,0.21084 6.2e-5,0.10047 -1.89e-4,0.20096 -0.0024,0.30141 -0.0078,0.11125 -0.01555,0.22745 -0.05653,0.32919 -0.237369,0.18411 -0.517026,0.64659 -0.832777,0.4771 -0.08244,-0.0673 -0.145548,-0.16346 -0.204651,-0.25836 -0.07423,-0.14086 -0.09318,-0.28932 -0.07618,-0.45413 0.01032,-0.19254 0.02639,-0.38443 0.05336,-0.57478 0.01208,-0.17377 0.02656,-0.35559 0.103796,-0.50782 0.166792,-0.31148 0.501135,-0.55599 0.809628,-0.52612 0.08089,0.017 0.150969,0.0586 0.213086,0.12394 0.129158,0.15328 0.214692,0.35354 0.288799,0.55018 0.11377,0.34278 0.171388,0.67132 0.149357,1.04213 -0.01619,0.72705 0.02785,0.48228 -0.719555,0.99548 -0.09474,-0.0222 -0.181435,-0.0749 -0.259784,-0.14202 -0.01794,-0.0167 -0.106939,-0.0991 -0.120855,-0.11547 -0.06427,-0.0758 -0.09951,-0.17878 -0.154847,-0.2628 -0.04577,-0.10299 -0.08096,-0.2066 -0.06395,-0.32546 0.01246,-0.17054 0.04663,-0.33732 0.08943,-0.50044 0.05851,-0.21423 0.115806,-0.43147 0.22059,-0.62124 0.280698,-0.19739 0.540323,-0.54609 0.881455,-0.49973 0.07318,0.0182 0.141453,0.0541 0.19026,0.12461 0.06738,0.1429 0.112004,0.28384 0.09165,0.45207 -0.0091,0.20363 -0.0175,0.41136 -0.07142,0.60641 -0.50041,0.37559 -0.458904,0.51803 -0.815333,0.50192 -0.05041,-0.004 -0.09958,-0.0127 -0.145946,-0.0382 -0.07636,-0.0489 -0.115149,-0.12238 -0.147688,-0.21693 -0.04933,-0.16695 -0.04952,-0.33639 -0.0455,-0.51228 -0.0022,-0.61618 -0.0069,-0.40495 0.681798,-0.91306 0.05871,-0.002 0.112069,0.0306 0.16217,0.0644 0.08427,0.063 0.166058,0.13645 0.229215,0.2289 0.06309,0.11098 0.137631,0.21697 0.155421,0.35393 -0.0614,0.36654 -0.464695,0.57583 -0.763536,0.54747 -0.0633,-0.002 -0.126893,-0.005 -0.188722,-0.0226 -0.08696,-0.0249 -0.173472,-0.0605 -0.237754,-0.13856 -0.04017,-0.053 -0.08923,-0.11407 -0.08851,-0.18978 6.03e-4,-0.0557 -0.0016,-0.11155 0.0018,-0.16716 0.01623,-0.0661 0.02458,-0.1334 0.06094,-0.1905 0.03971,-0.0939 0.05992,-0.19788 0.09895,-0.29219 0.04174,-0.076 0.07618,-0.16729 0.13909,-0.22031 0.363838,-0.24835 0.488402,-0.51246 0.816941,-0.45693 0.05773,0.013 0.10774,0.0407 0.153468,0.0854 0.09225,0.0813 0.167107,0.178 0.216438,0.30431 0.1069,0.25729 0.194518,0.52249 0.235685,0.80745 0.02572,0.27654 0.01477,0.55549 0.01192,0.83339 -0.0016,0.0318 -0.0031,0.0635 -0.0046,0.0953 -0.0014,0.028 0.01529,0.0682 -0.004,0.0841 -0.552829,0.45656 -0.464756,0.57234 -0.802661,0.4221 -0.157165,-0.0729 -0.307381,-0.16711 -0.457721,-0.25787 -0.120365,-0.0872 -0.182655,-0.14404 -0.145612,-0.31843 0.03412,-0.19595 0.08629,-0.38692 0.141629,-0.57554 0.06565,-0.17163 0.1454,-0.34061 0.259852,-0.47288 0.218837,-0.25466 0.05087,-0.0654 0.711572,-0.51157 0.04604,-0.0311 0.09993,0.024 0.133943,0.0537 0.07733,0.10669 0.133741,0.23061 0.190142,0.3541 0.09814,0.25198 0.177909,0.51899 0.178425,0.80054 -0.0033,0.19786 0.0022,0.4028 -0.0498,0.59298 -0.109614,0.34798 -0.0079,0.0616 -0.695315,0.5246 -0.03046,0.0205 -0.06743,-0.0158 -0.09509,-0.028 -0.05701,-0.0392 -0.11246,-0.0862 -0.154939,-0.14651 -0.0348,-0.0925 -0.07124,-0.18591 -0.07863,-0.28831 -9.86e-4,-0.15698 -0.0034,-0.31401 -1.7e-4,-0.47097 0.720006,-0.50893 0.53651,-0.70791 0.763059,-0.31867 0.05317,0.11003 0.09371,0.22562 0.133684,0.34291 0.06011,0.17721 0.124613,0.35409 0.158005,0.54196 0.0065,0.032 0.05134,0.23083 0.02656,0.25202 -0.449608,0.38448 -0.476871,0.66956 -0.756478,0.44315 -0.151003,-0.14078 -0.288851,-0.30375 -0.416664,-0.47378 -0.126038,-0.19256 -0.261284,-0.3916 -0.298193,-0.63889 -0.02439,-0.15074 -0.01704,-0.30685 0.0055,-0.45791 0.0835,-0.353 0.476341,-0.6418 0.767381,-0.54275 0.0822,0.034 0.155853,0.0915 0.224649,0.15436 0.137093,0.13473 0.270279,0.27632 0.388298,0.43518 0.08148,0.12394 0.198222,0.25231 0.180407,0.42289 -0.03766,0.35701 -0.480024,0.68083 -0.756947,0.5909 -0.05905,-0.0183 -0.113542,-0.049 -0.161921,-0.0943 -0.04985,-0.0545 -0.103973,-0.1012 -0.161918,-0.14272 -0.05485,-0.0538 -0.105405,-0.11314 -0.152974,-0.17597 -0.05862,-0.0731 -0.106471,-0.15837 -0.15527,-0.2411 -0.06999,-0.0942 -0.118904,-0.20723 -0.175016,-0.31326 -0.03093,-0.11201 -0.07622,-0.22104 -0.05682,-0.34145 0.0081,-0.0789 0.02846,-0.15609 0.03484,-0.23335 0.002,-0.0577 -0.0016,-0.1383 0.04406,-0.1698 0.393741,-0.25867 0.476608,-0.46855 0.793669,-0.45634 0.05097,0.006 0.09326,0.0341 0.137475,0.0638 0.05097,0.036 0.09988,0.0756 0.151258,0.11064 0.05502,0.044 0.113359,0.0781 0.171689,0.11536 0.05696,0.0528 0.106545,0.11913 0.145898,0.19132 0.06539,0.0906 0.09317,0.2061 0.120491,0.32003 0.0173,0.12351 0.0342,0.24524 0.02596,0.3712 1.45e-4,0.10234 8.34e-4,0.20469 2.01e-4,0.30704 -4.01e-4,0.0935 4.01e-4,0.18693 1.17e-4,0.2804 9.86e-4,0.0764 0.0016,0.15315 0.01085,0.22889 0.01146,0.0619 0.04448,0.11767 0.04236,0.18238 -1.86e-4,0.0635 8.35e-4,0.12518 -0.0169,0.18568 -0.02677,0.0644 -0.0879,0.0885 -0.118665,0.14921 -0.250337,0.18234 -0.338497,0.23946 -0.7307,0.50405 -0.0094,0.006 -0.01822,0.0149 -0.02875,0.0175 -0.0174,0.005 -0.03576,-0.004 -0.05337,-0.002 -0.04615,-1.9e-4 -0.09231,0.002 -0.138411,0.004 -0.04081,7.2e-4 -0.08232,0.005 -0.122029,-0.01 -0.0398,-0.0239 -0.07662,-0.0573 -0.120899,-0.0691 -0.06138,-0.0293 -0.11551,-0.0755 -0.175281,-0.10923 -0.04492,-0.0347 -0.08995,-0.0662 -0.119096,-0.12185 -0.04815,-0.0502 -0.09598,-0.0985 -0.135577,-0.15903 -0.03269,-0.0738 -0.08864,-0.1302 -0.113897,-0.20983 -0.03099,-0.0791 -0.03625,-0.17028 -0.06606,-0.25126 -0.0051,-0.0734 -0.0377,-0.13933 -0.06012,-0.20695 -0.01318,-0.0652 -0.04875,-0.1136 -0.06349,-0.17792 -0.02901,-0.0578 -0.0303,-0.11814 -0.05366,-0.17777 -0.03417,-0.056 -0.06459,-0.12324 -0.08198,-0.18866 -0.0227,-0.0618 -0.05597,-0.11783 -0.08864,-0.17211 -0.03821,-0.0786 -0.07305,-0.15971 -0.122054,-0.23089 -0.04202,-0.0641 -0.07849,-0.12656 -0.09229,-0.20809 -6.03e-4,-0.0507 -0.0012,-0.10292 0.0082,-0.15249 0.007,-0.0736 0.04616,-0.12906 0.05999,-0.19873 0.03688,-0.0616 0.06996,-0.12013 0.08613,-0.19598 0.01006,-0.0251 0.01205,-0.0547 0.0249,-0.0778 0.01044,-0.0187 0.0333,-0.0221 0.04675,-0.0379 0.0064,-0.007 0.0081,-0.0208 0.01591,-0.026 0.0082,-0.005 0.01877,-0.003 0.02815,-0.004 0.01305,-0.0414 0.02528,-0.0663 0.05813,-0.0895 0.222212,-0.15706 0.451569,-0.30015 0.668216,-0.46797 0.0096,-0.007 -0.861934,0.5988 -0.582842,0.40467 0.23334,-0.16081 0.447511,-0.37009 0.699646,-0.48319 0.0284,-0.0127 0.06514,0.005 0.09101,-0.0234 0.05516,-0.0202 0.107149,-0.0523 0.166108,-0.0518 0.04271,-0.005 0.08557,-0.009 0.12758,0.005 0.04019,0.0191 0.08485,0.0211 0.12405,0.0447 0.04561,0.0179 0.091,0.009 0.13765,0.0228 0.05319,0.0185 0.102204,0.0551 0.158231,0.0622 0.06391,0.0161 0.116676,0.0546 0.174617,0.0886 0.04519,0.0244 0.09198,0.0428 0.135008,0.0719 0.04521,0.0351 0.09347,0.0654 0.142817,0.0905 0.05329,0.0232 0.09326,0.0705 0.142408,0.10328 0.04767,0.0313 0.09861,0.0584 0.129225,0.11572 0.04854,0.061 0.09166,0.13034 0.122336,0.20615 0.05019,0.0896 0.09813,0.18072 0.139839,0.27613 0.0447,0.0878 0.07393,0.18507 0.106426,0.2798 0.0086,0.0791 0.02724,0.15557 0.05477,0.22847 0.03121,0.10385 0.0468,0.21426 0.04277,0.32472 -4.01e-4,0.1063 4.02e-4,0.21297 -0.0071,0.31893 -0.0083,0.0992 -0.02241,0.19736 -0.05448,0.28989 -0.01222,0.0912 -0.03595,0.17348 -0.06674,0.25741 -0.03796,0.0951 -0.08277,0.18545 -0.113252,0.28441 -0.04705,0.0619 -0.0649,0.15099 -0.116601,0.21008 -0.0493,0.0589 0.0061,-4.8e-4 -0.04982,0.0408 -0.05625,0.0416 0.01142,0.004 -0.04517,0.058 -0.214429,0.20724 -1.163859,-0.96306 -0.710129,0.50693 -0.03723,0.025 -0.07442,0.0503 -0.112476,0.0735 1.269193,-0.88669 0.319447,-0.20402 -0.113989,0.0675 -0.09512,0.0496 -0.195034,0.0889 -0.299994,0.0888 -0.06845,4.9e-4 -0.13689,0.002 -0.205336,0.002 -0.04167,-4e-5 -0.08363,-7.2e-4 -0.124852,-0.008 -0.04478,-0.0123 -0.08837,-0.0283 -0.13204,-0.0456 -0.05417,-0.0171 -0.111711,-0.0188 -0.162762,-0.0506 -0.08535,-0.0501 -0.155318,-0.12432 -0.217608,-0.20996 -0.08912,-0.16238 -0.207206,-0.30011 -0.297836,-0.46161 -0.11877,-0.1979 -0.233369,-0.39913 -0.351324,-0.59759 -0.08219,-0.11915 -0.159561,-0.24243 -0.247014,-0.35624 -0.05954,-0.083 -0.115947,-0.16916 -0.179815,-0.24754 -0.03987,-0.0617 -0.06411,-0.11932 -0.05665,-0.19849 4.01e-4,-0.0447 -6.8e-5,-0.0895 -3.9e-5,-0.13427 -1.88e-4,-0.0465 -6.01e-4,-0.0929 -0.0029,-0.13933 -0.0029,-0.0572 -0.0084,-0.11469 -6.02e-4,-0.17167 0.02371,-0.0523 0.01641,-0.11826 0.05886,-0.15798 0.0077,-0.0696 0.03467,-0.11281 0.07964,-0.15715 0.01601,-0.0189 0.02443,-0.0458 0.04063,-0.0645 0.0074,-0.008 0.01943,-0.009 0.0282,-0.0154 0.02988,-0.0223 0.05218,-0.0586 0.08548,-0.0753 0.41919,-0.31106 1.386776,-0.95425 0.117808,-0.082 -0.02676,0.0184 0.05157,-0.0407 0.0782,-0.0593 0.229421,-0.16077 0.458832,-0.32155 0.688247,-0.48233 -1.187574,0.82586 -0.429498,0.3133 -0.175269,0.0878 0,0 0.698398,-0.33407 0.698398,-0.33407 z"
       inkscape:connector-curvature="0" />
    <path
       style="fill:#333333;fill-opacity:1;stroke:#000000;stroke-width:0;stroke-miterlimit:4;stroke-dasharray:none;stroke-dashoffset:0;stroke-opacity:1"
       id="path1407"
       d="m 54.851495,135.67111 c 0.0788,-0.17902 0.159555,-0.35671 0.236765,-0.53675 0.03639,-0.0789 0.0736,-0.16386 0.128519,-0.22689 0.216316,-0.27618 0.515734,-0.46184 0.818717,-0.57196 0.03054,-0.0302 0.0715,-0.031 0.10614,-0.0482 0.03162,-0.0157 0.05729,-0.0439 0.08936,-0.06 0.06387,-0.026 0.115862,-0.0733 0.183809,-0.0901 0.04424,-0.006 0.0883,-9e-4 0.132676,2.5e-4 0,0 -0.613336,0.53196 -0.613336,0.53196 v 0 c -0.04038,2.4e-4 -0.08038,0.003 -0.118071,0.0221 -0.05965,0.0311 -0.115203,0.0733 -0.176361,0.10045 -0.06334,0.0424 -0.133784,0.0664 -0.200684,0.0994 -0.02355,0.0112 -0.09135,0.0517 -0.06963,0.0362 1.014414,-0.72635 0.742975,-0.56739 0.54525,-0.37085 -0.06356,0.0954 0.02678,-0.0339 -0.04203,0.0455 -0.03897,0.045 -0.06731,0.11038 -0.09772,0.16265 -0.08125,0.17709 -0.158648,0.35688 -0.238003,0.535 0,0 -0.685398,0.37109 -0.685398,0.37109 z"
       inkscape:connector-curvature="0" />
    <ellipse
       style="fill:#d4aa00;fill-rule:evenodd;stroke-width:0.26458332"
       id="path1420"
       cx="52.150963"
       cy="148.09746"
       rx="0.76839989"
       ry="0.70158249" />
    <rect
       style="fill:#806600;fill-rule:evenodd;stroke-width:0.26458332"
       id="rect1422"
       width="0.53453904"
       height="1.0022607"
       x="51.917107"
       y="147.66315" />
    <ellipse
       ry="0.70158249"
       rx="0.76839989"
       cy="145.49158"
       cx="56.894997"
       id="ellipse1424"
       style="fill:#d4aa00;fill-rule:evenodd;stroke-width:0.26458332" />
    <rect
       y="145.05727"
       x="56.66114"
       height="1.0022607"
       width="0.53453904"
       id="rect1426"
       style="fill:#806600;fill-rule:evenodd;stroke-width:0.26458332" />
    <ellipse
       style="fill:#d4aa00;fill-rule:evenodd;stroke-width:0.26458332"
       id="ellipse1428"
       cx="45.736496"
       cy="147.02838"
       rx="0.76839989"
       ry="0.70158249" />
    <rect
       style="fill:#806600;fill-rule:evenodd;stroke-width:0.26458332"
       id="rect1430"
       width="0.53453904"
       height="1.0022607"
       x="45.50264"
       y="146.59407" />
    <ellipse
       style="fill:#1a1a1a;fill-rule:evenodd;stroke-width:0.26458332"
       id="path1442"
       cx="49.945995"
       cy="146.05952"
       rx="1.503391"
       ry="1.5367998" />
    <ellipse
       ry="0.70158249"
       rx="0.76839989"
       cy="146.02612"
       cx="50.079624"
       id="ellipse1432"
       style="fill:#d4aa00;fill-rule:evenodd;stroke-width:0.26458332" />
    <rect
       y="145.45818"
       x="49.845768"
       height="1.0022607"
       width="0.53453904"
       id="rect1434"
       style="fill:#806600;fill-rule:evenodd;stroke-width:0.26458332" />
  </g>
</svg>
